Laser/messwerte/oszilloskop/ALL0028/F0028CH1.CSV

Record Length,2.500000e+03,,   0.004160000000,   0.03600,
Sample Interval,4.000000e-06,,   0.004164000000,   0.03400,
Trigger Point,-1.040000000000e+03,,   0.004168000000,   0.03600,
,,,   0.004172000000,   0.03600,
,,,   0.004176000000,   0.03600,
,,,   0.004180000000,   0.03600,
Source,CH1,,   0.004184000000,   0.03600,
Vertical Units,V,,   0.004188000000,   0.03600,
Vertical Scale,5.000000e-02,,   0.004192000000,   0.03400,
Vertical Offset,-1.400000e-01,,   0.004196000000,   0.03600,
Horizontal Units,s,,   0.004200000000,   0.03600,
Horizontal Scale,1.000000e-03,,   0.004204000000,   0.03600,
Pt Fmt,Y,,   0.004208000000,   0.03600,
Yzero,0.000000e+00,,   0.004212000000,   0.03400,
Probe Atten,1.000000e+00,,   0.004216000000,   0.03600,
Model Number,TDS1001B,,   0.004220000000,   0.03600,
Serial Number,C059923,,   0.004224000000,   0.03600,
Firmware Version,FV:v22.01,,   0.004228000000,   0.03600,
,,,0.004232000000,   0.03600,
,,,0.004236000000,   0.03600,
,,,0.004240000000,   0.03600,
,,,0.004244000000,   0.03600,
,,,0.004248000000,   0.03600,
,,,0.004252000000,   0.03400,
,,,0.004256000000,   0.03600,
,,,0.004260000000,   0.03600,
,,,0.004264000000,   0.03600,
,,,0.004268000000,   0.03600,
,,,0.004272000000,   0.03400,
,,,0.004276000000,   0.03600,
,,,0.004280000000,   0.03600,
,,,0.004284000000,   0.03400,
,,,0.004288000000,   0.03400,
,,,0.004292000000,   0.03600,
,,,0.004296000000,   0.03400,
,,,0.004300000000,   0.03600,
,,,0.004304000000,   0.03400,
,,,0.004308000000,   0.03400,
,,,0.004312000000,   0.03400,
,,,0.004316000000,   0.03400,
,,,0.004320000000,   0.03400,
,,,0.004324000000,   0.03400,
,,,0.004328000000,   0.03400,
,,,0.004332000000,   0.03400,
,,,0.004336000000,   0.03600,
,,,0.004340000000,   0.03400,
,,,0.004344000000,   0.03400,
,,,0.004348000000,   0.03600,
,,,0.004352000000,   0.03400,
,,,0.004356000000,   0.03400,
,,,0.004360000000,   0.03600,
,,,0.004364000000,   0.03600,
,,,0.004368000000,   0.03600,
,,,0.004372000000,   0.03400,
,,,0.004376000000,   0.03400,
,,,0.004380000000,   0.03400,
,,,0.004384000000,   0.03400,
,,,0.004388000000,   0.03400,
,,,0.004392000000,   0.03400,
,,,0.004396000000,   0.03400,
,,,0.004400000000,   0.03400,
,,,0.004404000000,   0.03200,
,,,0.004408000000,   0.03400,
,,,0.004412000000,   0.03400,
,,,0.004416000000,   0.03400,
,,,0.004420000000,   0.03400,
,,,0.004424000000,   0.03400,
,,,0.004428000000,   0.03400,
,,,0.004432000000,   0.03400,
,,,0.004436000000,   0.03400,
,,,0.004440000000,   0.03400,
,,,0.004444000000,   0.03400,
,,,0.004448000000,   0.03400,
,,,0.004452000000,   0.03400,
,,,0.004456000000,   0.03400,
,,,0.004460000000,   0.03400,
,,,0.004464000000,   0.03400,
,,,0.004468000000,   0.03400,
,,,0.004472000000,   0.03400,
,,,0.004476000000,   0.03400,
,,,0.004480000000,   0.03400,
,,,0.004484000000,   0.03400,
,,,0.004488000000,   0.03400,
,,,0.004492000000,   0.03400,
,,,0.004496000000,   0.03400,
,,,0.004500000000,   0.03400,
,,,0.004504000000,   0.03400,
,,,0.004508000000,   0.03400,
,,,0.004512000000,   0.03400,
,,,0.004516000000,   0.03400,
,,,0.004520000000,   0.03400,
,,,0.004524000000,   0.03400,
,,,0.004528000000,   0.03400,
,,,0.004532000000,   0.03400,
,,,0.004536000000,   0.03400,
,,,0.004540000000,   0.03400,
,,,0.004544000000,   0.03400,
,,,0.004548000000,   0.03400,
,,,0.004552000000,   0.03200,
,,,0.004556000000,   0.03400,
,,,0.004560000000,   0.03400,
,,,0.004564000000,   0.03400,
,,,0.004568000000,   0.03400,
,,,0.004572000000,   0.03400,
,,,0.004576000000,   0.03400,
,,,0.004580000000,   0.03400,
,,,0.004584000000,   0.03400,
,,,0.004588000000,   0.03200,
,,,0.004592000000,   0.03400,
,,,0.004596000000,   0.03400,
,,,0.004600000000,   0.03400,
,,,0.004604000000,   0.03200,
,,,0.004608000000,   0.03400,
,,,0.004612000000,   0.03200,
,,,0.004616000000,   0.03200,
,,,0.004620000000,   0.03400,
,,,0.004624000000,   0.03200,
,,,0.004628000000,   0.03200,
,,,0.004632000000,   0.03400,
,,,0.004636000000,   0.03400,
,,,0.004640000000,   0.03200,
,,,0.004644000000,   0.03400,
,,,0.004648000000,   0.03400,
,,,0.004652000000,   0.03400,
,,,0.004656000000,   0.03400,
,,,0.004660000000,   0.03400,
,,,0.004664000000,   0.03200,
,,,0.004668000000,   0.03400,
,,,0.004672000000,   0.03400,
,,,0.004676000000,   0.03400,
,,,0.004680000000,   0.03400,
,,,0.004684000000,   0.03400,
,,,0.004688000000,   0.03200,
,,,0.004692000000,   0.03200,
,,,0.004696000000,   0.03400,
,,,0.004700000000,   0.03200,
,,,0.004704000000,   0.03200,
,,,0.004708000000,   0.03400,
,,,0.004712000000,   0.03200,
,,,0.004716000000,   0.03400,
,,,0.004720000000,   0.03200,
,,,0.004724000000,   0.03400,
,,,0.004728000000,   0.03200,
,,,0.004732000000,   0.03200,
,,,0.004736000000,   0.03200,
,,,0.004740000000,   0.03400,
,,,0.004744000000,   0.03200,
,,,0.004748000000,   0.03400,
,,,0.004752000000,   0.03400,
,,,0.004756000000,   0.03400,
,,,0.004760000000,   0.03200,
,,,0.004764000000,   0.03200,
,,,0.004768000000,   0.03400,
,,,0.004772000000,   0.03400,
,,,0.004776000000,   0.03400,
,,,0.004780000000,   0.03400,
,,,0.004784000000,   0.03400,
,,,0.004788000000,   0.03400,
,,,0.004792000000,   0.03400,
,,,0.004796000000,   0.03400,
,,,0.004800000000,   0.03200,
,,,0.004804000000,   0.03200,
,,,0.004808000000,   0.03200,
,,,0.004812000000,   0.03400,
,,,0.004816000000,   0.03400,
,,,0.004820000000,   0.03400,
,,,0.004824000000,   0.03400,
,,,0.004828000000,   0.03600,
,,,0.004832000000,   0.03200,
,,,0.004836000000,   0.03200,
,,,0.004840000000,   0.03200,
,,,0.004844000000,   0.03200,
,,,0.004848000000,   0.03200,
,,,0.004852000000,   0.03600,
,,,0.004856000000,   0.03200,
,,,0.004860000000,   0.03400,
,,,0.004864000000,   0.03200,
,,,0.004868000000,   0.03400,
,,,0.004872000000,   0.03400,
,,,0.004876000000,   0.03200,
,,,0.004880000000,   0.03400,
,,,0.004884000000,   0.03400,
,,,0.004888000000,   0.03400,
,,,0.004892000000,   0.03400,
,,,0.004896000000,   0.03400,
,,,0.004900000000,   0.03400,
,,,0.004904000000,   0.03400,
,,,0.004908000000,   0.03400,
,,,0.004912000000,   0.03400,
,,,0.004916000000,   0.03400,
,,,0.004920000000,   0.03400,
,,,0.004924000000,   0.03400,
,,,0.004928000000,   0.03400,
,,,0.004932000000,   0.03400,
,,,0.004936000000,   0.03400,
,,,0.004940000000,   0.03400,
,,,0.004944000000,   0.03400,
,,,0.004948000000,   0.03400,
,,,0.004952000000,   0.03600,
,,,0.004956000000,   0.03400,
,,,0.004960000000,   0.03400,
,,,0.004964000000,   0.03400,
,,,0.004968000000,   0.03400,
,,,0.004972000000,   0.03400,
,,,0.004976000000,   0.03400,
,,,0.004980000000,   0.03400,
,,,0.004984000000,   0.03600,
,,,0.004988000000,   0.03400,
,,,0.004992000000,   0.03400,
,,,0.004996000000,   0.03400,
,,,0.005000000000,   0.03600,
,,,0.005004000000,   0.03600,
,,,0.005008000000,   0.03400,
,,,0.005012000000,   0.03600,
,,,0.005016000000,   0.03400,
,,,0.005020000000,   0.03600,
,,,0.005024000000,   0.03400,
,,,0.005028000000,   0.03600,
,,,0.005032000000,   0.03400,
,,,0.005036000000,   0.03600,
,,,0.005040000000,   0.03600,
,,,0.005044000000,   0.03400,
,,,0.005048000000,   0.03600,
,,,0.005052000000,   0.03600,
,,,0.005056000000,   0.03600,
,,,0.005060000000,   0.03600,
,,,0.005064000000,   0.03600,
,,,0.005068000000,   0.03600,
,,,0.005072000000,   0.03800,
,,,0.005076000000,   0.03600,
,,,0.005080000000,   0.03800,
,,,0.005084000000,   0.03800,
,,,0.005088000000,   0.03800,
,,,0.005092000000,   0.03800,
,,,0.005096000000,   0.03800,
,,,0.005100000000,   0.03800,
,,,0.005104000000,   0.03800,
,,,0.005108000000,   0.04000,
,,,0.005112000000,   0.04000,
,,,0.005116000000,   0.04000,
,,,0.005120000000,   0.04000,
,,,0.005124000000,   0.04000,
,,,0.005128000000,   0.04000,
,,,0.005132000000,   0.04200,
,,,0.005136000000,   0.04200,
,,,0.005140000000,   0.04200,
,,,0.005144000000,   0.04200,
,,,0.005148000000,   0.04200,
,,,0.005152000000,   0.04400,
,,,0.005156000000,   0.04400,
,,,0.005160000000,   0.04600,
,,,0.005164000000,   0.04600,
,,,0.005168000000,   0.04600,
,,,0.005172000000,   0.04800,
,,,0.005176000000,   0.04600,
,,,0.005180000000,   0.05000,
,,,0.005184000000,   0.05000,
,,,0.005188000000,   0.05400,
,,,0.005192000000,   0.05400,
,,,0.005196000000,   0.05400,
,,,0.005200000000,   0.05600,
,,,0.005204000000,   0.05800,
,,,0.005208000000,   0.06000,
,,,0.005212000000,   0.06000,
,,,0.005216000000,   0.06200,
,,,0.005220000000,   0.06400,
,,,0.005224000000,   0.06800,
,,,0.005228000000,   0.07000,
,,,0.005232000000,   0.07200,
,,,0.005236000000,   0.07400,
,,,0.005240000000,   0.07800,
,,,0.005244000000,   0.08000,
,,,0.005248000000,   0.08200,
,,,0.005252000000,   0.08600,
,,,0.005256000000,   0.08800,
,,,0.005260000000,   0.09000,
,,,0.005264000000,   0.09400,
,,,0.005268000000,   0.09800,
,,,0.005272000000,   0.10000,
,,,0.005276000000,   0.10200,
,,,0.005280000000,   0.10600,
,,,0.005284000000,   0.10800,
,,,0.005288000000,   0.10800,
,,,0.005292000000,   0.11000,
,,,0.005296000000,   0.11000,
,,,0.005300000000,   0.11200,
,,,0.005304000000,   0.11200,
,,,0.005308000000,   0.11200,
,,,0.005312000000,   0.11400,
,,,0.005316000000,   0.11400,
,,,0.005320000000,   0.11400,
,,,0.005324000000,   0.11200,
,,,0.005328000000,   0.11200,
,,,0.005332000000,   0.11200,
,,,0.005336000000,   0.11200,
,,,0.005340000000,   0.11200,
,,,0.005344000000,   0.10800,
,,,0.005348000000,   0.11000,
,,,0.005352000000,   0.10800,
,,,0.005356000000,   0.10800,
,,,0.005360000000,   0.10800,
,,,0.005364000000,   0.10800,
,,,0.005368000000,   0.10800,
,,,0.005372000000,   0.10400,
,,,0.005376000000,   0.10400,
,,,0.005380000000,   0.10400,
,,,0.005384000000,   0.10200,
,,,0.005388000000,   0.10200,
,,,0.005392000000,   0.10000,
,,,0.005396000000,   0.10000,
,,,0.005400000000,   0.10000,
,,,0.005404000000,   0.09800,
,,,0.005408000000,   0.09800,
,,,0.005412000000,   0.09800,
,,,0.005416000000,   0.09600,
,,,0.005420000000,   0.09600,
,,,0.005424000000,   0.09600,
,,,0.005428000000,   0.09400,
,,,0.005432000000,   0.09200,
,,,0.005436000000,   0.09200,
,,,0.005440000000,   0.09200,
,,,0.005444000000,   0.09000,
,,,0.005448000000,   0.09000,
,,,0.005452000000,   0.09000,
,,,0.005456000000,   0.08800,
,,,0.005460000000,   0.08800,
,,,0.005464000000,   0.08600,
,,,0.005468000000,   0.08800,
,,,0.005472000000,   0.08400,
,,,0.005476000000,   0.08400,
,,,0.005480000000,   0.08600,
,,,0.005484000000,   0.08200,
,,,0.005488000000,   0.08200,
,,,0.005492000000,   0.08200,
,,,0.005496000000,   0.08200,
,,,0.005500000000,   0.08000,
,,,0.005504000000,   0.08000,
,,,0.005508000000,   0.08000,
,,,0.005512000000,   0.08000,
,,,0.005516000000,   0.07800,
,,,0.005520000000,   0.07800,
,,,0.005524000000,   0.07800,
,,,0.005528000000,   0.07600,
,,,0.005532000000,   0.07600,
,,,0.005536000000,   0.07600,
,,,0.005540000000,   0.07600,
,,,0.005544000000,   0.07600,
,,,0.005548000000,   0.07400,
,,,0.005552000000,   0.07400,
,,,0.005556000000,   0.07400,
,,,0.005560000000,   0.07200,
,,,0.005564000000,   0.07200,
,,,0.005568000000,   0.07200,
,,,0.005572000000,   0.07200,
,,,0.005576000000,   0.07200,
,,,0.005580000000,   0.07200,
,,,0.005584000000,   0.07000,
,,,0.005588000000,   0.07000,
,,,0.005592000000,   0.07000,
,,,0.005596000000,   0.07000,
,,,0.005600000000,   0.07000,
,,,0.005604000000,   0.06800,
,,,0.005608000000,   0.06800,
,,,0.005612000000,   0.06600,
,,,0.005616000000,   0.06600,
,,,0.005620000000,   0.06600,
,,,0.005624000000,   0.06600,
,,,0.005628000000,   0.06600,
,,,0.005632000000,   0.06400,
,,,0.005636000000,   0.06400,
,,,0.005640000000,   0.06400,
,,,0.005644000000,   0.06400,
,,,0.005648000000,   0.06400,
,,,0.005652000000,   0.06200,
,,,0.005656000000,   0.06200,
,,,0.005660000000,   0.06400,
,,,0.005664000000,   0.06400,
,,,0.005668000000,   0.06200,
,,,0.005672000000,   0.06200,
,,,0.005676000000,   0.06200,
,,,0.005680000000,   0.06200,
,,,0.005684000000,   0.06200,
,,,0.005688000000,   0.06000,
,,,0.005692000000,   0.06200,
,,,0.005696000000,   0.06000,
,,,0.005700000000,   0.06000,
,,,0.005704000000,   0.06000,
,,,0.005708000000,   0.06000,
,,,0.005712000000,   0.06000,
,,,0.005716000000,   0.06000,
,,,0.005720000000,   0.06000,
,,,0.005724000000,   0.06000,
,,,0.005728000000,   0.06000,
,,,0.005732000000,   0.06000,
,,,0.005736000000,   0.06000,
,,,0.005740000000,   0.05800,
,,,0.005744000000,   0.06000,
,,,0.005748000000,   0.05800,
,,,0.005752000000,   0.06000,
,,,0.005756000000,   0.05800,
,,,0.005760000000,   0.05800,
,,,0.005764000000,   0.05800,
,,,0.005768000000,   0.05800,
,,,0.005772000000,   0.05800,
,,,0.005776000000,   0.05800,
,,,0.005780000000,   0.05800,
,,,0.005784000000,   0.05800,
,,,0.005788000000,   0.05800,
,,,0.005792000000,   0.05800,
,,,0.005796000000,   0.05800,
,,,0.005800000000,   0.05800,
,,,0.005804000000,   0.05600,
,,,0.005808000000,   0.05800,
,,,0.005812000000,   0.05800,
,,,0.005816000000,   0.05800,
,,,0.005820000000,   0.05600,
,,,0.005824000000,   0.05800,
,,,0.005828000000,   0.05800,
,,,0.005832000000,   0.05800,
,,,0.005836000000,   0.05800,
,,,0.005840000000,   0.05600,
,,,0.005844000000,   0.05600,
,,,0.005848000000,   0.05600,
,,,0.005852000000,   0.05600,
,,,0.005856000000,   0.05800,
,,,0.005860000000,   0.05800,
,,,0.005864000000,   0.05600,
,,,0.005868000000,   0.05800,
,,,0.005872000000,   0.05800,
,,,0.005876000000,   0.05800,
,,,0.005880000000,   0.05800,
,,,0.005884000000,   0.05800,
,,,0.005888000000,   0.05800,
,,,0.005892000000,   0.05800,
,,,0.005896000000,   0.05800,
,,,0.005900000000,   0.06000,
,,,0.005904000000,   0.05800,
,,,0.005908000000,   0.05800,
,,,0.005912000000,   0.05800,
,,,0.005916000000,   0.05800,
,,,0.005920000000,   0.05800,
,,,0.005924000000,   0.06000,
,,,0.005928000000,   0.06000,
,,,0.005932000000,   0.06000,
,,,0.005936000000,   0.06000,
,,,0.005940000000,   0.06000,
,,,0.005944000000,   0.06200,
,,,0.005948000000,   0.06200,
,,,0.005952000000,   0.06000,
,,,0.005956000000,   0.06200,
,,,0.005960000000,   0.06200,
,,,0.005964000000,   0.06000,
,,,0.005968000000,   0.06200,
,,,0.005972000000,   0.06200,
,,,0.005976000000,   0.06200,
,,,0.005980000000,   0.06200,
,,,0.005984000000,   0.06200,
,,,0.005988000000,   0.06400,
,,,0.005992000000,   0.06200,
,,,0.005996000000,   0.06400,
,,,0.006000000000,   0.06600,
,,,0.006004000000,   0.06600,
,,,0.006008000000,   0.06600,
,,,0.006012000000,   0.06600,
,,,0.006016000000,   0.06800,
,,,0.006020000000,   0.06800,
,,,0.006024000000,   0.07000,
,,,0.006028000000,   0.07000,
,,,0.006032000000,   0.07000,
,,,0.006036000000,   0.07000,
,,,0.006040000000,   0.07000,
,,,0.006044000000,   0.07200,
,,,0.006048000000,   0.07400,
,,,0.006052000000,   0.07400,
,,,0.006056000000,   0.07400,
,,,0.006060000000,   0.07800,
,,,0.006064000000,   0.07800,
,,,0.006068000000,   0.07800,
,,,0.006072000000,   0.07800,
,,,0.006076000000,   0.07800,
,,,0.006080000000,   0.08000,
,,,0.006084000000,   0.08200,
,,,0.006088000000,   0.08400,
,,,0.006092000000,   0.08600,
,,,0.006096000000,   0.08600,
,,,0.006100000000,   0.08800,
,,,0.006104000000,   0.09000,
,,,0.006108000000,   0.09200,
,,,0.006112000000,   0.09600,
,,,0.006116000000,   0.09600,
,,,0.006120000000,   0.10000,
,,,0.006124000000,   0.10000,
,,,0.006128000000,   0.10600,
,,,0.006132000000,   0.10800,
,,,0.006136000000,   0.11200,
,,,0.006140000000,   0.11600,
,,,0.006144000000,   0.12000,
,,,0.006148000000,   0.12400,
,,,0.006152000000,   0.13200,
,,,0.006156000000,   0.13600,
,,,0.006160000000,   0.14200,
,,,0.006164000000,   0.15000,
,,,0.006168000000,   0.15600,
,,,0.006172000000,   0.16000,
,,,0.006176000000,   0.16800,
,,,0.006180000000,   0.17800,
,,,0.006184000000,   0.18400,
,,,0.006188000000,   0.19000,
,,,0.006192000000,   0.19800,
,,,0.006196000000,   0.20400,
,,,0.006200000000,   0.21200,
,,,0.006204000000,   0.22000,
,,,0.006208000000,   0.22400,
,,,0.006212000000,   0.22800,
,,,0.006216000000,   0.23200,
,,,0.006220000000,   0.23600,
,,,0.006224000000,   0.24000,
,,,0.006228000000,   0.24400,
,,,0.006232000000,   0.24800,
,,,0.006236000000,   0.25200,
,,,0.006240000000,   0.25600,
,,,0.006244000000,   0.26200,
,,,0.006248000000,   0.26200,
,,,0.006252000000,   0.26400,
,,,0.006256000000,   0.27000,
,,,0.006260000000,   0.27000,
,,,0.006264000000,   0.27400,
,,,0.006268000000,   0.27400,
,,,0.006272000000,   0.27600,
,,,0.006276000000,   0.27800,
,,,0.006280000000,   0.28000,
,,,0.006284000000,   0.28200,
,,,0.006288000000,   0.28400,
,,,0.006292000000,   0.28400,
,,,0.006296000000,   0.28400,
,,,0.006300000000,   0.28600,
,,,0.006304000000,   0.28400,
,,,0.006308000000,   0.28200,
,,,0.006312000000,   0.28200,
,,,0.006316000000,   0.28000,
,,,0.006320000000,   0.27800,
,,,0.006324000000,   0.27600,
,,,0.006328000000,   0.27400,
,,,0.006332000000,   0.27200,
,,,0.006336000000,   0.27000,
,,,0.006340000000,   0.26600,
,,,0.006344000000,   0.26400,
,,,0.006348000000,   0.26000,
,,,0.006352000000,   0.25800,
,,,0.006356000000,   0.25600,
,,,0.006360000000,   0.25200,
,,,0.006364000000,   0.24800,
,,,0.006368000000,   0.24800,
,,,0.006372000000,   0.24600,
,,,0.006376000000,   0.24200,
,,,0.006380000000,   0.23800,
,,,0.006384000000,   0.23600,
,,,0.006388000000,   0.23600,
,,,0.006392000000,   0.23200,
,,,0.006396000000,   0.23000,
,,,0.006400000000,   0.22800,
,,,0.006404000000,   0.22600,
,,,0.006408000000,   0.22200,
,,,0.006412000000,   0.22000,
,,,0.006416000000,   0.21800,
,,,0.006420000000,   0.21600,
,,,0.006424000000,   0.21400,
,,,0.006428000000,   0.21200,
,,,0.006432000000,   0.21000,
,,,0.006436000000,   0.20800,
,,,0.006440000000,   0.20600,
,,,0.006444000000,   0.20400,
,,,0.006448000000,   0.20200,
,,,0.006452000000,   0.19800,
,,,0.006456000000,   0.20000,
,,,0.006460000000,   0.19600,
,,,0.006464000000,   0.19400,
,,,0.006468000000,   0.19200,
,,,0.006472000000,   0.19000,
,,,0.006476000000,   0.19000,
,,,0.006480000000,   0.18600,
,,,0.006484000000,   0.18600,
,,,0.006488000000,   0.18600,
,,,0.006492000000,   0.18200,
,,,0.006496000000,   0.18200,
,,,0.006500000000,   0.17800,
,,,0.006504000000,   0.17800,
,,,0.006508000000,   0.17600,
,,,0.006512000000,   0.17600,
,,,0.006516000000,   0.17400,
,,,0.006520000000,   0.17000,
,,,0.006524000000,   0.17000,
,,,0.006528000000,   0.17000,
,,,0.006532000000,   0.16800,
,,,0.006536000000,   0.16600,
,,,0.006540000000,   0.16600,
,,,0.006544000000,   0.16200,
,,,0.006548000000,   0.16200,
,,,0.006552000000,   0.16000,
,,,0.006556000000,   0.16000,
,,,0.006560000000,   0.15600,
,,,0.006564000000,   0.15600,
,,,0.006568000000,   0.15600,
,,,0.006572000000,   0.15400,
,,,0.006576000000,   0.15000,
,,,0.006580000000,   0.15200,
,,,0.006584000000,   0.15000,
,,,0.006588000000,   0.14800,
,,,0.006592000000,   0.14800,
,,,0.006596000000,   0.14800,
,,,0.006600000000,   0.14600,
,,,0.006604000000,   0.14600,
,,,0.006608000000,   0.14200,
,,,0.006612000000,   0.14200,
,,,0.006616000000,   0.14200,
,,,0.006620000000,   0.14000,
,,,0.006624000000,   0.14000,
,,,0.006628000000,   0.13800,
,,,0.006632000000,   0.13600,
,,,0.006636000000,   0.13400,
,,,0.006640000000,   0.13600,
,,,0.006644000000,   0.13400,
,,,0.006648000000,   0.13200,
,,,0.006652000000,   0.13000,
,,,0.006656000000,   0.13000,
,,,0.006660000000,   0.13000,
,,,0.006664000000,   0.12800,
,,,0.006668000000,   0.12800,
,,,0.006672000000,   0.12400,
,,,0.006676000000,   0.12600,
,,,0.006680000000,   0.12400,
,,,0.006684000000,   0.12400,
,,,0.006688000000,   0.12200,
,,,0.006692000000,   0.12200,
,,,0.006696000000,   0.12000,
,,,0.006700000000,   0.12000,
,,,0.006704000000,   0.12000,
,,,0.006708000000,   0.12000,
,,,0.006712000000,   0.11800,
,,,0.006716000000,   0.11600,
,,,0.006720000000,   0.11600,
,,,0.006724000000,   0.11600,
,,,0.006728000000,   0.11400,
,,,0.006732000000,   0.11400,
,,,0.006736000000,   0.11400,
,,,0.006740000000,   0.11400,
,,,0.006744000000,   0.11400,
,,,0.006748000000,   0.11000,
,,,0.006752000000,   0.11000,
,,,0.006756000000,   0.11000,
,,,0.006760000000,   0.11000,
,,,0.006764000000,   0.11000,
,,,0.006768000000,   0.10800,
,,,0.006772000000,   0.10800,
