Laser/messwerte/oszilloskop/ALL0026/F0026CH2.CSV

Record Length,2.500000e+03,,   0.005520000000,  40.80000,
Sample Interval,4.000000e-06,,   0.005524000000,  40.80000,
Trigger Point,-1.380000000000e+03,,   0.005528000000,  40.80000,
,,,   0.005532000000,  41.60000,
,,,   0.005536000000,  40.80000,
,,,   0.005540000000,  41.60000,
Source,CH2,,   0.005544000000,  41.60000,
Vertical Units,A,,   0.005548000000,  40.80000,
Vertical Scale,2.000000e+01,,   0.005552000000,  40.80000,
Vertical Offset,-8.000000e+01,,   0.005556000000,  40.80000,
Horizontal Units,s,,   0.005560000000,  40.80000,
Horizontal Scale,1.000000e-03,,   0.005564000000,  40.80000,
Pt Fmt,Y,,   0.005568000000,  40.80000,
Yzero,0.000000e+00,,   0.005572000000,  40.80000,
Probe Atten,1.000000e+01,,   0.005576000000,  40.80000,
Model Number,TDS1001B,,   0.005580000000,  40.80000,
Serial Number,C059923,,   0.005584000000,  41.60000,
Firmware Version,FV:v22.01,,   0.005588000000,  40.80000,
,,,0.005592000000,  41.60000,
,,,0.005596000000,  40.80000,
,,,0.005600000000,  40.80000,
,,,0.005604000000,  40.80000,
,,,0.005608000000,  40.80000,
,,,0.005612000000,  41.60000,
,,,0.005616000000,  41.60000,
,,,0.005620000000,  40.80000,
,,,0.005624000000,  40.80000,
,,,0.005628000000,  40.80000,
,,,0.005632000000,  40.80000,
,,,0.005636000000,  40.80000,
,,,0.005640000000,  40.80000,
,,,0.005644000000,  40.80000,
,,,0.005648000000,  40.80000,
,,,0.005652000000,  40.80000,
,,,0.005656000000,  40.80000,
,,,0.005660000000,  40.80000,
,,,0.005664000000,  40.80000,
,,,0.005668000000,  40.80000,
,,,0.005672000000,  40.80000,
,,,0.005676000000,  40.80000,
,,,0.005680000000,  40.80000,
,,,0.005684000000,  40.80000,
,,,0.005688000000,  40.80000,
,,,0.005692000000,  40.80000,
,,,0.005696000000,  40.80000,
,,,0.005700000000,  40.80000,
,,,0.005704000000,  40.80000,
,,,0.005708000000,  40.80000,
,,,0.005712000000,  40.80000,
,,,0.005716000000,  40.80000,
,,,0.005720000000,  40.80000,
,,,0.005724000000,  40.80000,
,,,0.005728000000,  40.80000,
,,,0.005732000000,  40.80000,
,,,0.005736000000,  40.80000,
,,,0.005740000000,  40.80000,
,,,0.005744000000,  40.80000,
,,,0.005748000000,  40.80000,
,,,0.005752000000,  40.00000,
,,,0.005756000000,  40.80000,
,,,0.005760000000,  40.80000,
,,,0.005764000000,  40.80000,
,,,0.005768000000,  40.80000,
,,,0.005772000000,  40.80000,
,,,0.005776000000,  40.80000,
,,,0.005780000000,  40.80000,
,,,0.005784000000,  40.80000,
,,,0.005788000000,  40.80000,
,,,0.005792000000,  40.80000,
,,,0.005796000000,  40.80000,
,,,0.005800000000,  40.80000,
,,,0.005804000000,  40.80000,
,,,0.005808000000,  40.80000,
,,,0.005812000000,  40.80000,
,,,0.005816000000,  40.80000,
,,,0.005820000000,  40.80000,
,,,0.005824000000,  40.00000,
,,,0.005828000000,  40.00000,
,,,0.005832000000,  40.00000,
,,,0.005836000000,  40.00000,
,,,0.005840000000,  40.80000,
,,,0.005844000000,  40.00000,
,,,0.005848000000,  40.80000,
,,,0.005852000000,  40.80000,
,,,0.005856000000,  40.80000,
,,,0.005860000000,  40.00000,
,,,0.005864000000,  40.80000,
,,,0.005868000000,  40.00000,
,,,0.005872000000,  40.00000,
,,,0.005876000000,  40.80000,
,,,0.005880000000,  40.80000,
,,,0.005884000000,  40.80000,
,,,0.005888000000,  40.00000,
,,,0.005892000000,  40.00000,
,,,0.005896000000,  40.80000,
,,,0.005900000000,  40.00000,
,,,0.005904000000,  40.00000,
,,,0.005908000000,  40.00000,
,,,0.005912000000,  40.00000,
,,,0.005916000000,  40.80000,
,,,0.005920000000,  40.80000,
,,,0.005924000000,  40.00000,
,,,0.005928000000,  40.00000,
,,,0.005932000000,  40.00000,
,,,0.005936000000,  40.00000,
,,,0.005940000000,  40.00000,
,,,0.005944000000,  40.00000,
,,,0.005948000000,  40.00000,
,,,0.005952000000,  40.00000,
,,,0.005956000000,  40.00000,
,,,0.005960000000,  40.00000,
,,,0.005964000000,  40.00000,
,,,0.005968000000,  40.00000,
,,,0.005972000000,  40.00000,
,,,0.005976000000,  40.00000,
,,,0.005980000000,  40.00000,
,,,0.005984000000,  40.00000,
,,,0.005988000000,  40.00000,
,,,0.005992000000,  40.00000,
,,,0.005996000000,  40.00000,
,,,0.006000000000,  40.00000,
,,,0.006004000000,  40.00000,
,,,0.006008000000,  40.00000,
,,,0.006012000000,  40.00000,
,,,0.006016000000,  40.00000,
,,,0.006020000000,  40.00000,
,,,0.006024000000,  40.00000,
,,,0.006028000000,  40.00000,
,,,0.006032000000,  40.00000,
,,,0.006036000000,  40.00000,
,,,0.006040000000,  40.00000,
,,,0.006044000000,  40.00000,
,,,0.006048000000,  40.00000,
,,,0.006052000000,  40.00000,
,,,0.006056000000,  40.00000,
,,,0.006060000000,  40.00000,
,,,0.006064000000,  40.00000,
,,,0.006068000000,  40.00000,
,,,0.006072000000,  40.00000,
,,,0.006076000000,  40.00000,
,,,0.006080000000,  40.00000,
,,,0.006084000000,  39.20000,
,,,0.006088000000,  40.00000,
,,,0.006092000000,  40.00000,
,,,0.006096000000,  40.00000,
,,,0.006100000000,  40.00000,
,,,0.006104000000,  39.20000,
,,,0.006108000000,  40.00000,
,,,0.006112000000,  39.20000,
,,,0.006116000000,  39.20000,
,,,0.006120000000,  39.20000,
,,,0.006124000000,  40.00000,
,,,0.006128000000,  40.00000,
,,,0.006132000000,  40.00000,
,,,0.006136000000,  40.00000,
,,,0.006140000000,  39.20000,
,,,0.006144000000,  39.20000,
,,,0.006148000000,  40.00000,
,,,0.006152000000,  39.20000,
,,,0.006156000000,  39.20000,
,,,0.006160000000,  39.20000,
,,,0.006164000000,  40.00000,
,,,0.006168000000,  39.20000,
,,,0.006172000000,  39.20000,
,,,0.006176000000,  39.20000,
,,,0.006180000000,  39.20000,
,,,0.006184000000,  39.20000,
,,,0.006188000000,  39.20000,
,,,0.006192000000,  40.00000,
,,,0.006196000000,  39.20000,
,,,0.006200000000,  39.20000,
,,,0.006204000000,  39.20000,
,,,0.006208000000,  39.20000,
,,,0.006212000000,  39.20000,
,,,0.006216000000,  39.20000,
,,,0.006220000000,  40.00000,
,,,0.006224000000,  39.20000,
,,,0.006228000000,  39.20000,
,,,0.006232000000,  39.20000,
,,,0.006236000000,  39.20000,
,,,0.006240000000,  39.20000,
,,,0.006244000000,  39.20000,
,,,0.006248000000,  39.20000,
,,,0.006252000000,  39.20000,
,,,0.006256000000,  39.20000,
,,,0.006260000000,  39.20000,
,,,0.006264000000,  39.20000,
,,,0.006268000000,  39.20000,
,,,0.006272000000,  38.40000,
,,,0.006276000000,  39.20000,
,,,0.006280000000,  39.20000,
,,,0.006284000000,  39.20000,
,,,0.006288000000,  39.20000,
,,,0.006292000000,  39.20000,
,,,0.006296000000,  39.20000,
,,,0.006300000000,  39.20000,
,,,0.006304000000,  39.20000,
,,,0.006308000000,  39.20000,
,,,0.006312000000,  38.40000,
,,,0.006316000000,  39.20000,
,,,0.006320000000,  38.40000,
,,,0.006324000000,  39.20000,
,,,0.006328000000,  38.40000,
,,,0.006332000000,  38.40000,
,,,0.006336000000,  38.40000,
,,,0.006340000000,  38.40000,
,,,0.006344000000,  39.20000,
,,,0.006348000000,  39.20000,
,,,0.006352000000,  39.20000,
,,,0.006356000000,  39.20000,
,,,0.006360000000,  38.40000,
,,,0.006364000000,  38.40000,
,,,0.006368000000,  38.40000,
,,,0.006372000000,  39.20000,
,,,0.006376000000,  39.20000,
,,,0.006380000000,  38.40000,
,,,0.006384000000,  39.20000,
,,,0.006388000000,  39.20000,
,,,0.006392000000,  38.40000,
,,,0.006396000000,  39.20000,
,,,0.006400000000,  38.40000,
,,,0.006404000000,  39.20000,
,,,0.006408000000,  39.20000,
,,,0.006412000000,  38.40000,
,,,0.006416000000,  38.40000,
,,,0.006420000000,  38.40000,
,,,0.006424000000,  38.40000,
,,,0.006428000000,  38.40000,
,,,0.006432000000,  39.20000,
,,,0.006436000000,  38.40000,
,,,0.006440000000,  39.20000,
,,,0.006444000000,  38.40000,
,,,0.006448000000,  38.40000,
,,,0.006452000000,  38.40000,
,,,0.006456000000,  38.40000,
,,,0.006460000000,  38.40000,
,,,0.006464000000,  39.20000,
,,,0.006468000000,  38.40000,
,,,0.006472000000,  38.40000,
,,,0.006476000000,  38.40000,
,,,0.006480000000,  38.40000,
,,,0.006484000000,  38.40000,
,,,0.006488000000,  38.40000,
,,,0.006492000000,  38.40000,
,,,0.006496000000,  38.40000,
,,,0.006500000000,  38.40000,
,,,0.006504000000,  38.40000,
,,,0.006508000000,  38.40000,
,,,0.006512000000,  38.40000,
,,,0.006516000000,  38.40000,
,,,0.006520000000,  38.40000,
,,,0.006524000000,  38.40000,
,,,0.006528000000,  38.40000,
,,,0.006532000000,  38.40000,
,,,0.006536000000,  37.60000,
,,,0.006540000000,  37.60000,
,,,0.006544000000,  38.40000,
,,,0.006548000000,  38.40000,
,,,0.006552000000,  38.40000,
,,,0.006556000000,  38.40000,
,,,0.006560000000,  38.40000,
,,,0.006564000000,  37.60000,
,,,0.006568000000,  38.40000,
,,,0.006572000000,  38.40000,
,,,0.006576000000,  38.40000,
,,,0.006580000000,  38.40000,
,,,0.006584000000,  37.60000,
,,,0.006588000000,  37.60000,
,,,0.006592000000,  38.40000,
,,,0.006596000000,  38.40000,
,,,0.006600000000,  37.60000,
,,,0.006604000000,  38.40000,
,,,0.006608000000,  38.40000,
,,,0.006612000000,  37.60000,
,,,0.006616000000,  37.60000,
,,,0.006620000000,  37.60000,
,,,0.006624000000,  37.60000,
,,,0.006628000000,  37.60000,
,,,0.006632000000,  37.60000,
,,,0.006636000000,  37.60000,
,,,0.006640000000,  38.40000,
,,,0.006644000000,  38.40000,
,,,0.006648000000,  37.60000,
,,,0.006652000000,  38.40000,
,,,0.006656000000,  37.60000,
,,,0.006660000000,  37.60000,
,,,0.006664000000,  37.60000,
,,,0.006668000000,  38.40000,
,,,0.006672000000,  37.60000,
,,,0.006676000000,  37.60000,
,,,0.006680000000,  37.60000,
,,,0.006684000000,  38.40000,
,,,0.006688000000,  37.60000,
,,,0.006692000000,  37.60000,
,,,0.006696000000,  37.60000,
,,,0.006700000000,  37.60000,
,,,0.006704000000,  37.60000,
,,,0.006708000000,  37.60000,
,,,0.006712000000,  37.60000,
,,,0.006716000000,  37.60000,
,,,0.006720000000,  37.60000,
,,,0.006724000000,  37.60000,
,,,0.006728000000,  37.60000,
,,,0.006732000000,  37.60000,
,,,0.006736000000,  37.60000,
,,,0.006740000000,  37.60000,
,,,0.006744000000,  37.60000,
,,,0.006748000000,  37.60000,
,,,0.006752000000,  37.60000,
,,,0.006756000000,  37.60000,
,,,0.006760000000,  37.60000,
,,,0.006764000000,  37.60000,
,,,0.006768000000,  37.60000,
,,,0.006772000000,  37.60000,
,,,0.006776000000,  37.60000,
,,,0.006780000000,  36.80000,
,,,0.006784000000,  36.80000,
,,,0.006788000000,  36.80000,
,,,0.006792000000,  37.60000,
,,,0.006796000000,  36.80000,
,,,0.006800000000,  37.60000,
,,,0.006804000000,  37.60000,
,,,0.006808000000,  37.60000,
,,,0.006812000000,  37.60000,
,,,0.006816000000,  37.60000,
,,,0.006820000000,  37.60000,
,,,0.006824000000,  37.60000,
,,,0.006828000000,  36.80000,
,,,0.006832000000,  37.60000,
,,,0.006836000000,  37.60000,
,,,0.006840000000,  36.80000,
,,,0.006844000000,  37.60000,
,,,0.006848000000,  36.80000,
,,,0.006852000000,  37.60000,
,,,0.006856000000,  36.80000,
,,,0.006860000000,  36.80000,
,,,0.006864000000,  36.80000,
,,,0.006868000000,  37.60000,
,,,0.006872000000,  37.60000,
,,,0.006876000000,  36.80000,
,,,0.006880000000,  36.80000,
,,,0.006884000000,  37.60000,
,,,0.006888000000,  36.80000,
,,,0.006892000000,  36.80000,
,,,0.006896000000,  37.60000,
,,,0.006900000000,  37.60000,
,,,0.006904000000,  36.80000,
,,,0.006908000000,  37.60000,
,,,0.006912000000,  36.80000,
,,,0.006916000000,  37.60000,
,,,0.006920000000,  36.80000,
,,,0.006924000000,  36.80000,
,,,0.006928000000,  36.80000,
,,,0.006932000000,  36.80000,
,,,0.006936000000,  37.60000,
,,,0.006940000000,  36.80000,
,,,0.006944000000,  36.80000,
,,,0.006948000000,  36.80000,
,,,0.006952000000,  36.80000,
,,,0.006956000000,  36.80000,
,,,0.006960000000,  36.80000,
,,,0.006964000000,  36.80000,
,,,0.006968000000,  36.00000,
,,,0.006972000000,  36.80000,
,,,0.006976000000,  36.80000,
,,,0.006980000000,  36.80000,
,,,0.006984000000,  36.80000,
,,,0.006988000000,  36.80000,
,,,0.006992000000,  36.80000,
,,,0.006996000000,  36.80000,
,,,0.007000000000,  36.80000,
,,,0.007004000000,  36.00000,
,,,0.007008000000,  36.80000,
,,,0.007012000000,  36.80000,
,,,0.007016000000,  36.80000,
,,,0.007020000000,  36.80000,
,,,0.007024000000,  36.80000,
,,,0.007028000000,  36.80000,
,,,0.007032000000,  36.80000,
,,,0.007036000000,  36.00000,
,,,0.007040000000,  36.00000,
,,,0.007044000000,  36.80000,
,,,0.007048000000,  36.00000,
,,,0.007052000000,  36.00000,
,,,0.007056000000,  36.80000,
,,,0.007060000000,  36.00000,
,,,0.007064000000,  36.00000,
,,,0.007068000000,  36.00000,
,,,0.007072000000,  36.80000,
,,,0.007076000000,  36.80000,
,,,0.007080000000,  36.00000,
,,,0.007084000000,  36.00000,
,,,0.007088000000,  36.80000,
,,,0.007092000000,  36.00000,
,,,0.007096000000,  36.00000,
,,,0.007100000000,  36.00000,
,,,0.007104000000,  36.00000,
,,,0.007108000000,  36.00000,
,,,0.007112000000,  36.00000,
,,,0.007116000000,  36.00000,
,,,0.007120000000,  36.00000,
,,,0.007124000000,  36.00000,
,,,0.007128000000,  36.00000,
,,,0.007132000000,  36.00000,
,,,0.007136000000,  36.00000,
,,,0.007140000000,  36.00000,
,,,0.007144000000,  35.20000,
,,,0.007148000000,  36.00000,
,,,0.007152000000,  36.00000,
,,,0.007156000000,  36.00000,
,,,0.007160000000,  36.00000,
,,,0.007164000000,  35.20000,
,,,0.007168000000,  35.20000,
,,,0.007172000000,  36.00000,
,,,0.007176000000,  36.00000,
,,,0.007180000000,  36.00000,
,,,0.007184000000,  36.00000,
,,,0.007188000000,  36.00000,
,,,0.007192000000,  36.00000,
,,,0.007196000000,  36.00000,
,,,0.007200000000,  36.00000,
,,,0.007204000000,  36.00000,
,,,0.007208000000,  36.00000,
,,,0.007212000000,  36.00000,
,,,0.007216000000,  36.00000,
,,,0.007220000000,  36.00000,
,,,0.007224000000,  36.00000,
,,,0.007228000000,  36.00000,
,,,0.007232000000,  35.20000,
,,,0.007236000000,  36.00000,
,,,0.007240000000,  36.00000,
,,,0.007244000000,  36.00000,
,,,0.007248000000,  36.00000,
,,,0.007252000000,  35.20000,
,,,0.007256000000,  36.00000,
,,,0.007260000000,  35.20000,
,,,0.007264000000,  36.00000,
,,,0.007268000000,  35.20000,
,,,0.007272000000,  36.00000,
,,,0.007276000000,  36.00000,
,,,0.007280000000,  35.20000,
,,,0.007284000000,  35.20000,
,,,0.007288000000,  36.00000,
,,,0.007292000000,  36.00000,
,,,0.007296000000,  35.20000,
,,,0.007300000000,  35.20000,
,,,0.007304000000,  35.20000,
,,,0.007308000000,  35.20000,
,,,0.007312000000,  35.20000,
,,,0.007316000000,  35.20000,
,,,0.007320000000,  35.20000,
,,,0.007324000000,  35.20000,
,,,0.007328000000,  36.00000,
,,,0.007332000000,  35.20000,
,,,0.007336000000,  35.20000,
,,,0.007340000000,  35.20000,
,,,0.007344000000,  35.20000,
,,,0.007348000000,  35.20000,
,,,0.007352000000,  35.20000,
,,,0.007356000000,  35.20000,
,,,0.007360000000,  35.20000,
,,,0.007364000000,  35.20000,
,,,0.007368000000,  35.20000,
,,,0.007372000000,  35.20000,
,,,0.007376000000,  35.20000,
,,,0.007380000000,  35.20000,
,,,0.007384000000,  35.20000,
,,,0.007388000000,  35.20000,
,,,0.007392000000,  35.20000,
,,,0.007396000000,  35.20000,
,,,0.007400000000,  35.20000,
,,,0.007404000000,  35.20000,
,,,0.007408000000,  35.20000,
,,,0.007412000000,  35.20000,
,,,0.007416000000,  35.20000,
,,,0.007420000000,  35.20000,
,,,0.007424000000,  35.20000,
,,,0.007428000000,  35.20000,
,,,0.007432000000,  35.20000,
,,,0.007436000000,  35.20000,
,,,0.007440000000,  34.40000,
,,,0.007444000000,  35.20000,
,,,0.007448000000,  35.20000,
,,,0.007452000000,  35.20000,
,,,0.007456000000,  35.20000,
,,,0.007460000000,  34.40000,
,,,0.007464000000,  34.40000,
,,,0.007468000000,  35.20000,
,,,0.007472000000,  34.40000,
,,,0.007476000000,  35.20000,
,,,0.007480000000,  35.20000,
,,,0.007484000000,  34.40000,
,,,0.007488000000,  34.40000,
,,,0.007492000000,  35.20000,
,,,0.007496000000,  34.40000,
,,,0.007500000000,  34.40000,
,,,0.007504000000,  34.40000,
,,,0.007508000000,  34.40000,
,,,0.007512000000,  34.40000,
,,,0.007516000000,  34.40000,
,,,0.007520000000,  34.40000,
,,,0.007524000000,  34.40000,
,,,0.007528000000,  34.40000,
,,,0.007532000000,  34.40000,
,,,0.007536000000,  34.40000,
,,,0.007540000000,  34.40000,
,,,0.007544000000,  34.40000,
,,,0.007548000000,  34.40000,
,,,0.007552000000,  34.40000,
,,,0.007556000000,  34.40000,
,,,0.007560000000,  34.40000,
,,,0.007564000000,  34.40000,
,,,0.007568000000,  34.40000,
,,,0.007572000000,  34.40000,
,,,0.007576000000,  34.40000,
,,,0.007580000000,  34.40000,
,,,0.007584000000,  34.40000,
,,,0.007588000000,  34.40000,
,,,0.007592000000,  34.40000,
,,,0.007596000000,  34.40000,
,,,0.007600000000,  34.40000,
,,,0.007604000000,  34.40000,
,,,0.007608000000,  34.40000,
,,,0.007612000000,  34.40000,
,,,0.007616000000,  34.40000,
,,,0.007620000000,  34.40000,
,,,0.007624000000,  34.40000,
,,,0.007628000000,  34.40000,
,,,0.007632000000,  34.40000,
,,,0.007636000000,  34.40000,
,,,0.007640000000,  34.40000,
,,,0.007644000000,  34.40000,
,,,0.007648000000,  34.40000,
,,,0.007652000000,  34.40000,
,,,0.007656000000,  33.60000,
,,,0.007660000000,  33.60000,
,,,0.007664000000,  34.40000,
,,,0.007668000000,  34.40000,
,,,0.007672000000,  34.40000,
,,,0.007676000000,  33.60000,
,,,0.007680000000,  34.40000,
,,,0.007684000000,  34.40000,
,,,0.007688000000,  34.40000,
,,,0.007692000000,  34.40000,
,,,0.007696000000,  33.60000,
,,,0.007700000000,  34.40000,
,,,0.007704000000,  33.60000,
,,,0.007708000000,  34.40000,
,,,0.007712000000,  34.40000,
,,,0.007716000000,  34.40000,
,,,0.007720000000,  34.40000,
,,,0.007724000000,  33.60000,
,,,0.007728000000,  33.60000,
,,,0.007732000000,  34.40000,
,,,0.007736000000,  34.40000,
,,,0.007740000000,  33.60000,
,,,0.007744000000,  34.40000,
,,,0.007748000000,  33.60000,
,,,0.007752000000,  33.60000,
,,,0.007756000000,  33.60000,
,,,0.007760000000,  34.40000,
,,,0.007764000000,  34.40000,
,,,0.007768000000,  33.60000,
,,,0.007772000000,  33.60000,
,,,0.007776000000,  33.60000,
,,,0.007780000000,  33.60000,
,,,0.007784000000,  33.60000,
,,,0.007788000000,  33.60000,
,,,0.007792000000,  33.60000,
,,,0.007796000000,  33.60000,
,,,0.007800000000,  33.60000,
,,,0.007804000000,  33.60000,
,,,0.007808000000,  33.60000,
,,,0.007812000000,  33.60000,
,,,0.007816000000,  32.80000,
,,,0.007820000000,  33.60000,
,,,0.007824000000,  33.60000,
,,,0.007828000000,  33.60000,
,,,0.007832000000,  33.60000,
,,,0.007836000000,  33.60000,
,,,0.007840000000,  34.40000,
,,,0.007844000000,  34.40000,
,,,0.007848000000,  33.60000,
,,,0.007852000000,  33.60000,
,,,0.007856000000,  33.60000,
,,,0.007860000000,  33.60000,
,,,0.007864000000,  33.60000,
,,,0.007868000000,  33.60000,
,,,0.007872000000,  33.60000,
,,,0.007876000000,  32.80000,
,,,0.007880000000,  33.60000,
,,,0.007884000000,  32.80000,
,,,0.007888000000,  32.80000,
,,,0.007892000000,  32.80000,
,,,0.007896000000,  32.80000,
,,,0.007900000000,  33.60000,
,,,0.007904000000,  33.60000,
,,,0.007908000000,  32.80000,
,,,0.007912000000,  33.60000,
,,,0.007916000000,  33.60000,
,,,0.007920000000,  32.80000,
,,,0.007924000000,  33.60000,
,,,0.007928000000,  33.60000,
,,,0.007932000000,  33.60000,
,,,0.007936000000,  32.80000,
,,,0.007940000000,  33.60000,
,,,0.007944000000,  32.80000,
,,,0.007948000000,  33.60000,
,,,0.007952000000,  32.80000,
,,,0.007956000000,  33.60000,
,,,0.007960000000,  32.80000,
,,,0.007964000000,  33.60000,
,,,0.007968000000,  33.60000,
,,,0.007972000000,  32.80000,
,,,0.007976000000,  32.80000,
,,,0.007980000000,  32.80000,
,,,0.007984000000,  32.80000,
,,,0.007988000000,  32.80000,
,,,0.007992000000,  32.80000,
,,,0.007996000000,  32.80000,
,,,0.008000000000,  32.80000,
,,,0.008004000000,  32.80000,
,,,0.008008000000,  32.80000,
,,,0.008012000000,  32.80000,
,,,0.008016000000,  32.80000,
,,,0.008020000000,  32.80000,
,,,0.008024000000,  32.80000,
,,,0.008028000000,  32.80000,
,,,0.008032000000,  32.80000,
,,,0.008036000000,  32.80000,
,,,0.008040000000,  32.80000,
,,,0.008044000000,  32.80000,
,,,0.008048000000,  32.80000,
,,,0.008052000000,  32.80000,
,,,0.008056000000,  32.80000,
,,,0.008060000000,  32.80000,
,,,0.008064000000,  32.80000,
,,,0.008068000000,  32.80000,
,,,0.008072000000,  32.80000,
,,,0.008076000000,  32.80000,
,,,0.008080000000,  32.80000,
,,,0.008084000000,  32.00000,
,,,0.008088000000,  32.80000,
,,,0.008092000000,  32.00000,
,,,0.008096000000,  32.00000,
,,,0.008100000000,  32.00000,
,,,0.008104000000,  32.00000,
,,,0.008108000000,  32.80000,
,,,0.008112000000,  32.80000,
,,,0.008116000000,  32.80000,
,,,0.008120000000,  32.00000,
,,,0.008124000000,  32.80000,
,,,0.008128000000,  32.00000,
,,,0.008132000000,  32.00000,
