Laser/messwerte/oszilloskop/ALL0017/F0017CH2.CSV

Record Length,2.500000e+03,,  -0.004200000000,  12.80000,
Sample Interval,1.000000e-05,,  -0.004190000000,  12.80000,
Trigger Point,4.200000000000e+02,,  -0.004180000000,  12.80000,
,,,  -0.004170000000,  12.80000,
,,,  -0.004160000000,  12.80000,
,,,  -0.004150000000,  12.80000,
Source,CH2,,  -0.004140000000,  12.80000,
Vertical Units,A,,  -0.004130000000,  12.80000,
Vertical Scale,2.000000e+01,,  -0.004120000000,  12.80000,
Vertical Offset,-8.000000e+01,,  -0.004110000000,  13.60000,
Horizontal Units,s,,  -0.004100000000,  13.60000,
Horizontal Scale,2.500000e-03,,  -0.004090000000,  12.80000,
Pt Fmt,Y,,  -0.004080000000,  13.60000,
Yzero,0.000000e+00,,  -0.004070000000,  13.60000,
Probe Atten,1.000000e+01,,  -0.004060000000,  12.80000,
Model Number,TDS1001B,,  -0.004050000000,  13.60000,
Serial Number,C059923,,  -0.004040000000,  12.80000,
Firmware Version,FV:v22.01,,  -0.004030000000,  13.60000,
,,,-00.004020000000,  12.80000,
,,,-00.004010000000,  12.80000,
,,,-00.004000000000,  13.60000,
,,,-00.003990000000,  13.60000,
,,,-00.003980000000,  13.60000,
,,,-00.003970000000,  12.80000,
,,,-00.003960000000,  13.60000,
,,,-00.003950000000,  13.60000,
,,,-00.003940000000,  13.60000,
,,,-00.003930000000,  14.40000,
,,,-00.003920000000,  13.60000,
,,,-00.003910000000,  13.60000,
,,,-00.003900000000,  13.60000,
,,,-00.003890000000,  13.60000,
,,,-00.003880000000,  13.60000,
,,,-00.003870000000,  13.60000,
,,,-00.003860000000,  13.60000,
,,,-00.003850000000,  14.40000,
,,,-00.003840000000,  13.60000,
,,,-00.003830000000,  13.60000,
,,,-00.003820000000,  13.60000,
,,,-00.003810000000,  14.40000,
,,,-00.003800000000,  14.40000,
,,,-00.003790000000,  13.60000,
,,,-00.003780000000,  14.40000,
,,,-00.003770000000,  13.60000,
,,,-00.003760000000,  14.40000,
,,,-00.003750000000,  14.40000,
,,,-00.003740000000,  14.40000,
,,,-00.003730000000,  15.20000,
,,,-00.003720000000,  13.60000,
,,,-00.003710000000,  14.40000,
,,,-00.003700000000,  14.40000,
,,,-00.003690000000,  14.40000,
,,,-00.003680000000,  14.40000,
,,,-00.003670000000,  14.40000,
,,,-00.003660000000,  14.40000,
,,,-00.003650000000,  15.20000,
,,,-00.003640000000,  14.40000,
,,,-00.003630000000,  14.40000,
,,,-00.003620000000,  15.20000,
,,,-00.003610000000,  14.40000,
,,,-00.003600000000,  15.20000,
,,,-00.003590000000,  15.20000,
,,,-00.003580000000,  15.20000,
,,,-00.003570000000,  14.40000,
,,,-00.003560000000,  15.20000,
,,,-00.003550000000,  15.20000,
,,,-00.003540000000,  15.20000,
,,,-00.003530000000,  15.20000,
,,,-00.003520000000,  16.00000,
,,,-00.003510000000,  15.20000,
,,,-00.003500000000,  15.20000,
,,,-00.003490000000,  15.20000,
,,,-00.003480000000,  15.20000,
,,,-00.003470000000,  15.20000,
,,,-00.003460000000,  15.20000,
,,,-00.003450000000,  15.20000,
,,,-00.003440000000,  15.20000,
,,,-00.003430000000,  15.20000,
,,,-00.003420000000,  16.00000,
,,,-00.003410000000,  16.00000,
,,,-00.003400000000,  16.00000,
,,,-00.003390000000,  16.00000,
,,,-00.003380000000,  16.00000,
,,,-00.003370000000,  16.00000,
,,,-00.003360000000,  16.00000,
,,,-00.003350000000,  15.20000,
,,,-00.003340000000,  16.00000,
,,,-00.003330000000,  16.00000,
,,,-00.003320000000,  16.00000,
,,,-00.003310000000,  16.00000,
,,,-00.003300000000,  16.00000,
,,,-00.003290000000,  16.00000,
,,,-00.003280000000,  16.00000,
,,,-00.003270000000,  16.00000,
,,,-00.003260000000,  16.00000,
,,,-00.003250000000,  16.00000,
,,,-00.003240000000,  16.00000,
,,,-00.003230000000,  16.00000,
,,,-00.003220000000,  16.00000,
,,,-00.003210000000,  16.00000,
,,,-00.003200000000,  16.00000,
,,,-00.003190000000,  16.00000,
,,,-00.003180000000,  16.00000,
,,,-00.003170000000,  16.00000,
,,,-00.003160000000,  16.80000,
,,,-00.003150000000,  16.00000,
,,,-00.003140000000,  16.80000,
,,,-00.003130000000,  16.00000,
,,,-00.003120000000,  16.80000,
,,,-00.003110000000,  16.80000,
,,,-00.003100000000,  16.80000,
,,,-00.003090000000,  16.00000,
,,,-00.003080000000,  16.80000,
,,,-00.003070000000,  16.80000,
,,,-00.003060000000,  16.00000,
,,,-00.003050000000,  16.80000,
,,,-00.003040000000,  16.80000,
,,,-00.003030000000,  16.00000,
,,,-00.003020000000,  16.80000,
,,,-00.003010000000,  16.80000,
,,,-00.003000000000,  16.80000,
,,,-00.002990000000,  16.80000,
,,,-00.002980000000,  16.80000,
,,,-00.002970000000,  16.80000,
,,,-00.002960000000,  17.60000,
,,,-00.002950000000,  16.80000,
,,,-00.002940000000,  17.60000,
,,,-00.002930000000,  17.60000,
,,,-00.002920000000,  16.80000,
,,,-00.002910000000,  16.80000,
,,,-00.002900000000,  16.80000,
,,,-00.002890000000,  16.80000,
,,,-00.002880000000,  16.80000,
,,,-00.002870000000,  17.60000,
,,,-00.002860000000,  17.60000,
,,,-00.002850000000,  17.60000,
,,,-00.002840000000,  17.60000,
,,,-00.002830000000,  17.60000,
,,,-00.002820000000,  17.60000,
,,,-00.002810000000,  17.60000,
,,,-00.002800000000,  17.60000,
,,,-00.002790000000,  17.60000,
,,,-00.002780000000,  17.60000,
,,,-00.002770000000,  17.60000,
,,,-00.002760000000,  17.60000,
,,,-00.002750000000,  17.60000,
,,,-00.002740000000,  18.40000,
,,,-00.002730000000,  18.40000,
,,,-00.002720000000,  17.60000,
,,,-00.002710000000,  18.40000,
,,,-00.002700000000,  18.40000,
,,,-00.002690000000,  18.40000,
,,,-00.002680000000,  18.40000,
,,,-00.002670000000,  18.40000,
,,,-00.002660000000,  17.60000,
,,,-00.002650000000,  18.40000,
,,,-00.002640000000,  18.40000,
,,,-00.002630000000,  18.40000,
,,,-00.002620000000,  18.40000,
,,,-00.002610000000,  18.40000,
,,,-00.002600000000,  17.60000,
,,,-00.002590000000,  18.40000,
,,,-00.002580000000,  18.40000,
,,,-00.002570000000,  18.40000,
,,,-00.002560000000,  18.40000,
,,,-00.002550000000,  18.40000,
,,,-00.002540000000,  18.40000,
,,,-00.002530000000,  19.20000,
,,,-00.002520000000,  18.40000,
,,,-00.002510000000,  18.40000,
,,,-00.002500000000,  18.40000,
,,,-00.002490000000,  18.40000,
,,,-00.002480000000,  18.40000,
,,,-00.002470000000,  18.40000,
,,,-00.002460000000,  18.40000,
,,,-00.002450000000,  18.40000,
,,,-00.002440000000,  18.40000,
,,,-00.002430000000,  18.40000,
,,,-00.002420000000,  18.40000,
,,,-00.002410000000,  18.40000,
,,,-00.002400000000,  19.20000,
,,,-00.002390000000,  18.40000,
,,,-00.002380000000,  19.20000,
,,,-00.002370000000,  19.20000,
,,,-00.002360000000,  19.20000,
,,,-00.002350000000,  19.20000,
,,,-00.002340000000,  19.20000,
,,,-00.002330000000,  19.20000,
,,,-00.002320000000,  19.20000,
,,,-00.002310000000,  19.20000,
,,,-00.002300000000,  19.20000,
,,,-00.002290000000,  19.20000,
,,,-00.002280000000,  20.00000,
,,,-00.002270000000,  19.20000,
,,,-00.002260000000,  19.20000,
,,,-00.002250000000,  19.20000,
,,,-00.002240000000,  20.00000,
,,,-00.002230000000,  20.00000,
,,,-00.002220000000,  19.20000,
,,,-00.002210000000,  20.00000,
,,,-00.002200000000,  19.20000,
,,,-00.002190000000,  20.00000,
,,,-00.002180000000,  20.00000,
,,,-00.002170000000,  19.20000,
,,,-00.002160000000,  20.00000,
,,,-00.002150000000,  20.00000,
,,,-00.002140000000,  20.00000,
,,,-00.002130000000,  20.00000,
,,,-00.002120000000,  20.00000,
,,,-00.002110000000,  20.00000,
,,,-00.002100000000,  20.00000,
,,,-00.002090000000,  20.00000,
,,,-00.002080000000,  20.00000,
,,,-00.002070000000,  20.00000,
,,,-00.002060000000,  20.00000,
,,,-00.002050000000,  20.00000,
,,,-00.002040000000,  20.00000,
,,,-00.002030000000,  20.00000,
,,,-00.002020000000,  20.00000,
,,,-00.002010000000,  20.00000,
,,,-00.002000000000,  20.80000,
,,,-00.001990000000,  20.00000,
,,,-00.001980000000,  20.00000,
,,,-00.001970000000,  20.00000,
,,,-00.001960000000,  20.80000,
,,,-00.001950000000,  20.00000,
,,,-00.001940000000,  20.80000,
,,,-00.001930000000,  20.80000,
,,,-00.001920000000,  20.00000,
,,,-00.001910000000,  20.00000,
,,,-00.001900000000,  20.00000,
,,,-00.001890000000,  20.80000,
,,,-00.001880000000,  20.80000,
,,,-00.001870000000,  20.80000,
,,,-00.001860000000,  20.80000,
,,,-00.001850000000,  20.80000,
,,,-00.001840000000,  20.80000,
,,,-00.001830000000,  20.80000,
,,,-00.001820000000,  20.80000,
,,,-00.001810000000,  20.80000,
,,,-00.001800000000,  20.80000,
,,,-00.001790000000,  20.80000,
,,,-00.001780000000,  20.80000,
,,,-00.001770000000,  20.80000,
,,,-00.001760000000,  21.60000,
,,,-00.001750000000,  20.80000,
,,,-00.001740000000,  20.80000,
,,,-00.001730000000,  20.80000,
,,,-00.001720000000,  20.80000,
,,,-00.001710000000,  20.80000,
,,,-00.001700000000,  21.60000,
,,,-00.001690000000,  20.80000,
,,,-00.001680000000,  21.60000,
,,,-00.001670000000,  21.60000,
,,,-00.001660000000,  20.80000,
,,,-00.001650000000,  21.60000,
,,,-00.001640000000,  21.60000,
,,,-00.001630000000,  21.60000,
,,,-00.001620000000,  21.60000,
,,,-00.001610000000,  22.40000,
,,,-00.001600000000,  21.60000,
,,,-00.001590000000,  22.40000,
,,,-00.001580000000,  21.60000,
,,,-00.001570000000,  21.60000,
,,,-00.001560000000,  21.60000,
,,,-00.001550000000,  21.60000,
,,,-00.001540000000,  21.60000,
,,,-00.001530000000,  21.60000,
,,,-00.001520000000,  21.60000,
,,,-00.001510000000,  21.60000,
,,,-00.001500000000,  21.60000,
,,,-00.001490000000,  22.40000,
,,,-00.001480000000,  22.40000,
,,,-00.001470000000,  22.40000,
,,,-00.001460000000,  22.40000,
,,,-00.001450000000,  21.60000,
,,,-00.001440000000,  22.40000,
,,,-00.001430000000,  22.40000,
,,,-00.001420000000,  22.40000,
,,,-00.001410000000,  22.40000,
,,,-00.001400000000,  22.40000,
,,,-00.001390000000,  22.40000,
,,,-00.001380000000,  22.40000,
,,,-00.001370000000,  22.40000,
,,,-00.001360000000,  22.40000,
,,,-00.001350000000,  22.40000,
,,,-00.001340000000,  22.40000,
,,,-00.001330000000,  23.20000,
,,,-00.001320000000,  22.40000,
,,,-00.001310000000,  22.40000,
,,,-00.001300000000,  23.20000,
,,,-00.001290000000,  22.40000,
,,,-00.001280000000,  23.20000,
,,,-00.001270000000,  23.20000,
,,,-00.001260000000,  22.40000,
,,,-00.001250000000,  22.40000,
,,,-00.001240000000,  23.20000,
,,,-00.001230000000,  23.20000,
,,,-00.001220000000,  23.20000,
,,,-00.001210000000,  23.20000,
,,,-00.001200000000,  23.20000,
,,,-00.001190000000,  23.20000,
,,,-00.001180000000,  23.20000,
,,,-00.001170000000,  23.20000,
,,,-00.001160000000,  23.20000,
,,,-00.001150000000,  23.20000,
,,,-00.001140000000,  23.20000,
,,,-00.001130000000,  23.20000,
,,,-00.001120000000,  23.20000,
,,,-00.001110000000,  23.20000,
,,,-00.001100000000,  23.20000,
,,,-00.001090000000,  23.20000,
,,,-00.001080000000,  23.20000,
,,,-00.001070000000,  23.20000,
,,,-00.001060000000,  23.20000,
,,,-00.001050000000,  23.20000,
,,,-00.001040000000,  23.20000,
,,,-00.001030000000,  23.20000,
,,,-00.001020000000,  24.00000,
,,,-00.001010000000,  23.20000,
,,,-00.001000000000,  24.00000,
,,,-00.000990000000,  23.20000,
,,,-00.000980000000,  23.20000,
,,,-00.000970000000,  23.20000,
,,,-00.000960000000,  23.20000,
,,,-00.000950000000,  24.00000,
,,,-00.000940000000,  24.00000,
,,,-00.000930000000,  24.00000,
,,,-00.000920000000,  24.00000,
,,,-00.000910000000,  24.00000,
,,,-00.000900000000,  24.00000,
,,,-00.000890000000,  24.00000,
,,,-00.000880000000,  24.00000,
,,,-00.000870000000,  24.00000,
,,,-00.000860000000,  24.80000,
,,,-00.000850000000,  24.00000,
,,,-00.000840000000,  24.00000,
,,,-00.000830000000,  24.00000,
,,,-00.000820000000,  24.00000,
,,,-00.000810000000,  24.00000,
,,,-00.000800000000,  24.00000,
,,,-00.000790000000,  24.00000,
,,,-00.000780000000,  24.00000,
,,,-00.000770000000,  24.80000,
,,,-00.000760000000,  24.80000,
,,,-00.000750000000,  24.00000,
,,,-00.000740000000,  24.00000,
,,,-00.000730000000,  24.80000,
,,,-00.000720000000,  24.00000,
,,,-00.000710000000,  24.80000,
,,,-00.000700000000,  24.80000,
,,,-00.000690000000,  24.80000,
,,,-00.000680000000,  24.80000,
,,,-00.000670000000,  24.80000,
,,,-00.000660000000,  24.80000,
,,,-00.000650000000,  24.80000,
,,,-00.000640000000,  24.80000,
,,,-00.000630000000,  24.80000,
,,,-00.000620000000,  24.80000,
,,,-00.000610000000,  25.60000,
,,,-00.000600000000,  24.80000,
,,,-00.000590000000,  24.80000,
,,,-00.000580000000,  24.80000,
,,,-00.000570000000,  25.60000,
,,,-00.000560000000,  24.80000,
,,,-00.000550000000,  25.60000,
,,,-00.000540000000,  25.60000,
,,,-00.000530000000,  25.60000,
,,,-00.000520000000,  25.60000,
,,,-00.000510000000,  25.60000,
,,,-00.000500000000,  25.60000,
,,,-00.000490000000,  25.60000,
,,,-00.000480000000,  25.60000,
,,,-00.000470000000,  25.60000,
,,,-00.000460000000,  25.60000,
,,,-00.000450000000,  25.60000,
,,,-00.000440000000,  24.80000,
,,,-00.000430000000,  25.60000,
,,,-00.000420000000,  25.60000,
,,,-00.000410000000,  25.60000,
,,,-00.000400000000,  25.60000,
,,,-00.000390000000,  25.60000,
,,,-00.000380000000,  25.60000,
,,,-00.000370000000,  25.60000,
,,,-00.000360000000,  25.60000,
,,,-00.000350000000,  25.60000,
,,,-00.000340000000,  26.40000,
,,,-00.000330000000,  25.60000,
,,,-00.000320000000,  25.60000,
,,,-00.000310000000,  25.60000,
,,,-00.000300000000,  26.40000,
,,,-00.000290000000,  26.40000,
,,,-00.000280000000,  25.60000,
,,,-00.000270000000,  25.60000,
,,,-00.000260000000,  25.60000,
,,,-00.000250000000,  26.40000,
,,,-00.000240000000,  25.60000,
,,,-00.000230000000,  26.40000,
,,,-00.000220000000,  26.40000,
,,,-00.000210000000,  26.40000,
,,,-00.000200000000,  26.40000,
,,,-00.000190000000,  26.40000,
,,,-00.000180000000,  26.40000,
,,,-00.000170000000,  26.40000,
,,,-00.000160000000,  26.40000,
,,,-00.000150000000,  26.40000,
,,,-00.000140000000,  26.40000,
,,,-00.000130000000,  26.40000,
,,,-00.000120000000,  27.20000,
,,,-00.000110000000,  26.40000,
,,,-00.000100000000,  26.40000,
,,,-00.000090000000,  26.40000,
,,,-00.000080000000,  27.20000,
,,,-00.000070000000,  26.40000,
,,,-00.000060000000,  26.40000,
,,,-00.000050000000,  27.20000,
,,,-00.000040000000,  26.40000,
,,,-00.000030000000,  27.20000,
,,,-00.000020000000,  27.20000,
,,,-00.000010000000,  27.20000,
,,,-00.000000000000,  27.20000,
,,,00.000010000000,  26.40000,
,,,00.000020000000,  27.20000,
,,,00.000030000000,  27.20000,
,,,00.000040000000,  27.20000,
,,,00.000050000000,  27.20000,
,,,00.000060000000,  27.20000,
,,,00.000070000000,  27.20000,
,,,00.000080000000,  27.20000,
,,,00.000090000000,  27.20000,
,,,00.000100000000,  27.20000,
,,,00.000110000000,  27.20000,
,,,00.000120000000,  27.20000,
,,,00.000130000000,  28.00000,
,,,00.000140000000,  27.20000,
,,,00.000150000000,  27.20000,
,,,00.000160000000,  27.20000,
,,,00.000170000000,  27.20000,
,,,00.000180000000,  27.20000,
,,,00.000190000000,  27.20000,
,,,00.000200000000,  28.00000,
,,,00.000210000000,  28.00000,
,,,00.000220000000,  28.00000,
,,,00.000230000000,  28.00000,
,,,00.000240000000,  28.00000,
,,,00.000250000000,  27.20000,
,,,00.000260000000,  28.00000,
,,,00.000270000000,  28.00000,
,,,00.000280000000,  28.00000,
,,,00.000290000000,  27.20000,
,,,00.000300000000,  28.00000,
,,,00.000310000000,  28.00000,
,,,00.000320000000,  28.00000,
,,,00.000330000000,  28.00000,
,,,00.000340000000,  28.00000,
,,,00.000350000000,  28.00000,
,,,00.000360000000,  28.00000,
,,,00.000370000000,  28.00000,
,,,00.000380000000,  28.00000,
,,,00.000390000000,  28.00000,
,,,00.000400000000,  27.20000,
,,,00.000410000000,  28.00000,
,,,00.000420000000,  28.00000,
,,,00.000430000000,  28.00000,
,,,00.000440000000,  28.80000,
,,,00.000450000000,  28.80000,
,,,00.000460000000,  28.80000,
,,,00.000470000000,  28.00000,
,,,00.000480000000,  28.80000,
,,,00.000490000000,  28.80000,
,,,00.000500000000,  28.80000,
,,,00.000510000000,  28.00000,
,,,00.000520000000,  28.80000,
,,,00.000530000000,  28.80000,
,,,00.000540000000,  28.80000,
,,,00.000550000000,  28.80000,
,,,00.000560000000,  28.80000,
,,,00.000570000000,  28.80000,
,,,00.000580000000,  29.60000,
,,,00.000590000000,  28.80000,
,,,00.000600000000,  28.80000,
,,,00.000610000000,  29.60000,
,,,00.000620000000,  28.80000,
,,,00.000630000000,  29.60000,
,,,00.000640000000,  29.60000,
,,,00.000650000000,  29.60000,
,,,00.000660000000,  29.60000,
,,,00.000670000000,  29.60000,
,,,00.000680000000,  29.60000,
,,,00.000690000000,  29.60000,
,,,00.000700000000,  29.60000,
,,,00.000710000000,  29.60000,
,,,00.000720000000,  29.60000,
,,,00.000730000000,  29.60000,
,,,00.000740000000,  29.60000,
,,,00.000750000000,  29.60000,
,,,00.000760000000,  29.60000,
,,,00.000770000000,  30.40000,
,,,00.000780000000,  29.60000,
,,,00.000790000000,  29.60000,
,,,00.000800000000,  29.60000,
,,,00.000810000000,  29.60000,
,,,00.000820000000,  29.60000,
,,,00.000830000000,  29.60000,
,,,00.000840000000,  29.60000,
,,,00.000850000000,  29.60000,
,,,00.000860000000,  29.60000,
,,,00.000870000000,  30.40000,
,,,00.000880000000,  30.40000,
,,,00.000890000000,  30.40000,
,,,00.000900000000,  30.40000,
,,,00.000910000000,  29.60000,
,,,00.000920000000,  30.40000,
,,,00.000930000000,  29.60000,
,,,00.000940000000,  30.40000,
,,,00.000950000000,  30.40000,
,,,00.000960000000,  30.40000,
,,,00.000970000000,  30.40000,
,,,00.000980000000,  30.40000,
,,,00.000990000000,  30.40000,
,,,00.001000000000,  30.40000,
,,,00.001010000000,  30.40000,
,,,00.001020000000,  30.40000,
,,,00.001030000000,  30.40000,
,,,00.001040000000,  30.40000,
,,,00.001050000000,  30.40000,
,,,00.001060000000,  30.40000,
,,,00.001070000000,  30.40000,
,,,00.001080000000,  30.40000,
,,,00.001090000000,  30.40000,
,,,00.001100000000,  30.40000,
,,,00.001110000000,  30.40000,
,,,00.001120000000,  30.40000,
,,,00.001130000000,  30.40000,
,,,00.001140000000,  30.40000,
,,,00.001150000000,  30.40000,
,,,00.001160000000,  30.40000,
,,,00.001170000000,  30.40000,
,,,00.001180000000,  31.20000,
,,,00.001190000000,  31.20000,
,,,00.001200000000,  31.20000,
,,,00.001210000000,  31.20000,
,,,00.001220000000,  31.20000,
,,,00.001230000000,  31.20000,
,,,00.001240000000,  31.20000,
,,,00.001250000000,  31.20000,
,,,00.001260000000,  31.20000,
,,,00.001270000000,  31.20000,
,,,00.001280000000,  31.20000,
,,,00.001290000000,  31.20000,
,,,00.001300000000,  31.20000,
,,,00.001310000000,  31.20000,
,,,00.001320000000,  31.20000,
,,,00.001330000000,  31.20000,
,,,00.001340000000,  32.00000,
,,,00.001350000000,  31.20000,
,,,00.001360000000,  31.20000,
,,,00.001370000000,  31.20000,
,,,00.001380000000,  31.20000,
,,,00.001390000000,  32.00000,
,,,00.001400000000,  31.20000,
,,,00.001410000000,  32.00000,
,,,00.001420000000,  32.00000,
,,,00.001430000000,  32.00000,
,,,00.001440000000,  32.00000,
,,,00.001450000000,  31.20000,
,,,00.001460000000,  32.00000,
,,,00.001470000000,  32.00000,
,,,00.001480000000,  31.20000,
,,,00.001490000000,  32.00000,
,,,00.001500000000,  32.00000,
,,,00.001510000000,  32.00000,
,,,00.001520000000,  32.00000,
,,,00.001530000000,  32.00000,
,,,00.001540000000,  32.00000,
,,,00.001550000000,  32.00000,
,,,00.001560000000,  32.00000,
,,,00.001570000000,  32.00000,
,,,00.001580000000,  32.00000,
,,,00.001590000000,  32.80000,
,,,00.001600000000,  32.80000,
,,,00.001610000000,  32.80000,
,,,00.001620000000,  32.80000,
,,,00.001630000000,  32.80000,
,,,00.001640000000,  32.00000,
,,,00.001650000000,  32.80000,
,,,00.001660000000,  32.80000,
,,,00.001670000000,  32.80000,
,,,00.001680000000,  32.80000,
,,,00.001690000000,  32.80000,
,,,00.001700000000,  32.80000,
,,,00.001710000000,  32.00000,
,,,00.001720000000,  33.60000,
,,,00.001730000000,  32.80000,
,,,00.001740000000,  32.80000,
,,,00.001750000000,  32.80000,
,,,00.001760000000,  32.80000,
,,,00.001770000000,  33.60000,
,,,00.001780000000,  32.80000,
,,,00.001790000000,  33.60000,
,,,00.001800000000,  33.60000,
,,,00.001810000000,  33.60000,
,,,00.001820000000,  33.60000,
,,,00.001830000000,  32.80000,
,,,00.001840000000,  33.60000,
,,,00.001850000000,  33.60000,
,,,00.001860000000,  33.60000,
,,,00.001870000000,  33.60000,
,,,00.001880000000,  33.60000,
,,,00.001890000000,  33.60000,
,,,00.001900000000,  33.60000,
,,,00.001910000000,  33.60000,
,,,00.001920000000,  33.60000,
,,,00.001930000000,  33.60000,
,,,00.001940000000,  33.60000,
,,,00.001950000000,  33.60000,
,,,00.001960000000,  33.60000,
,,,00.001970000000,  33.60000,
,,,00.001980000000,  33.60000,
,,,00.001990000000,  33.60000,
