Laser/messwerte/oszilloskop/ALL0024/F0024CH1.CSV

Record Length,2.500000e+03,,   0.002280000000,   0.05400,
Sample Interval,4.000000e-06,,   0.002284000000,   0.05400,
Trigger Point,-5.700000000000e+02,,   0.002288000000,   0.05400,
,,,   0.002292000000,   0.05400,
,,,   0.002296000000,   0.05400,
,,,   0.002300000000,   0.05400,
Source,CH1,,   0.002304000000,   0.05400,
Vertical Units,V,,   0.002308000000,   0.05400,
Vertical Scale,5.000000e-02,,   0.002312000000,   0.05400,
Vertical Offset,-1.340000e-01,,   0.002316000000,   0.05600,
Horizontal Units,s,,   0.002320000000,   0.05600,
Horizontal Scale,1.000000e-03,,   0.002324000000,   0.05600,
Pt Fmt,Y,,   0.002328000000,   0.05600,
Yzero,0.000000e+00,,   0.002332000000,   0.05600,
Probe Atten,1.000000e+00,,   0.002336000000,   0.05600,
Model Number,TDS1001B,,   0.002340000000,   0.05600,
Serial Number,C059923,,   0.002344000000,   0.05800,
Firmware Version,FV:v22.01,,   0.002348000000,   0.05600,
,,,0.002352000000,   0.05800,
,,,0.002356000000,   0.05800,
,,,0.002360000000,   0.06000,
,,,0.002364000000,   0.06000,
,,,0.002368000000,   0.06000,
,,,0.002372000000,   0.06000,
,,,0.002376000000,   0.06000,
,,,0.002380000000,   0.06000,
,,,0.002384000000,   0.06200,
,,,0.002388000000,   0.06000,
,,,0.002392000000,   0.06200,
,,,0.002396000000,   0.06400,
,,,0.002400000000,   0.06200,
,,,0.002404000000,   0.06400,
,,,0.002408000000,   0.06400,
,,,0.002412000000,   0.06400,
,,,0.002416000000,   0.06400,
,,,0.002420000000,   0.06400,
,,,0.002424000000,   0.06400,
,,,0.002428000000,   0.06400,
,,,0.002432000000,   0.06600,
,,,0.002436000000,   0.06400,
,,,0.002440000000,   0.06600,
,,,0.002444000000,   0.06600,
,,,0.002448000000,   0.06600,
,,,0.002452000000,   0.06800,
,,,0.002456000000,   0.06800,
,,,0.002460000000,   0.07000,
,,,0.002464000000,   0.06800,
,,,0.002468000000,   0.07000,
,,,0.002472000000,   0.07000,
,,,0.002476000000,   0.06800,
,,,0.002480000000,   0.07000,
,,,0.002484000000,   0.07000,
,,,0.002488000000,   0.07000,
,,,0.002492000000,   0.07200,
,,,0.002496000000,   0.07200,
,,,0.002500000000,   0.07200,
,,,0.002504000000,   0.07200,
,,,0.002508000000,   0.07200,
,,,0.002512000000,   0.07200,
,,,0.002516000000,   0.07200,
,,,0.002520000000,   0.07200,
,,,0.002524000000,   0.07200,
,,,0.002528000000,   0.07200,
,,,0.002532000000,   0.07200,
,,,0.002536000000,   0.07400,
,,,0.002540000000,   0.07200,
,,,0.002544000000,   0.07400,
,,,0.002548000000,   0.07200,
,,,0.002552000000,   0.07400,
,,,0.002556000000,   0.07400,
,,,0.002560000000,   0.07400,
,,,0.002564000000,   0.07400,
,,,0.002568000000,   0.07400,
,,,0.002572000000,   0.07400,
,,,0.002576000000,   0.07400,
,,,0.002580000000,   0.07400,
,,,0.002584000000,   0.07400,
,,,0.002588000000,   0.07600,
,,,0.002592000000,   0.07400,
,,,0.002596000000,   0.07400,
,,,0.002600000000,   0.07400,
,,,0.002604000000,   0.07600,
,,,0.002608000000,   0.07600,
,,,0.002612000000,   0.07600,
,,,0.002616000000,   0.07600,
,,,0.002620000000,   0.07600,
,,,0.002624000000,   0.07800,
,,,0.002628000000,   0.07800,
,,,0.002632000000,   0.07800,
,,,0.002636000000,   0.07600,
,,,0.002640000000,   0.07800,
,,,0.002644000000,   0.07800,
,,,0.002648000000,   0.07800,
,,,0.002652000000,   0.07800,
,,,0.002656000000,   0.07800,
,,,0.002660000000,   0.07800,
,,,0.002664000000,   0.07800,
,,,0.002668000000,   0.07800,
,,,0.002672000000,   0.07800,
,,,0.002676000000,   0.07800,
,,,0.002680000000,   0.08000,
,,,0.002684000000,   0.07800,
,,,0.002688000000,   0.07800,
,,,0.002692000000,   0.07800,
,,,0.002696000000,   0.07800,
,,,0.002700000000,   0.07800,
,,,0.002704000000,   0.07800,
,,,0.002708000000,   0.07800,
,,,0.002712000000,   0.07800,
,,,0.002716000000,   0.07800,
,,,0.002720000000,   0.07800,
,,,0.002724000000,   0.07600,
,,,0.002728000000,   0.07800,
,,,0.002732000000,   0.07800,
,,,0.002736000000,   0.07600,
,,,0.002740000000,   0.07600,
,,,0.002744000000,   0.07600,
,,,0.002748000000,   0.07600,
,,,0.002752000000,   0.07400,
,,,0.002756000000,   0.07400,
,,,0.002760000000,   0.07600,
,,,0.002764000000,   0.07400,
,,,0.002768000000,   0.07400,
,,,0.002772000000,   0.07400,
,,,0.002776000000,   0.07400,
,,,0.002780000000,   0.07200,
,,,0.002784000000,   0.07200,
,,,0.002788000000,   0.07200,
,,,0.002792000000,   0.07200,
,,,0.002796000000,   0.07200,
,,,0.002800000000,   0.07200,
,,,0.002804000000,   0.07200,
,,,0.002808000000,   0.07200,
,,,0.002812000000,   0.07000,
,,,0.002816000000,   0.07200,
,,,0.002820000000,   0.07000,
,,,0.002824000000,   0.06800,
,,,0.002828000000,   0.07000,
,,,0.002832000000,   0.06800,
,,,0.002836000000,   0.06600,
,,,0.002840000000,   0.06600,
,,,0.002844000000,   0.06800,
,,,0.002848000000,   0.06600,
,,,0.002852000000,   0.06600,
,,,0.002856000000,   0.06600,
,,,0.002860000000,   0.06600,
,,,0.002864000000,   0.06600,
,,,0.002868000000,   0.06400,
,,,0.002872000000,   0.06400,
,,,0.002876000000,   0.06600,
,,,0.002880000000,   0.06400,
,,,0.002884000000,   0.06400,
,,,0.002888000000,   0.06400,
,,,0.002892000000,   0.06200,
,,,0.002896000000,   0.06200,
,,,0.002900000000,   0.06200,
,,,0.002904000000,   0.06200,
,,,0.002908000000,   0.06200,
,,,0.002912000000,   0.06000,
,,,0.002916000000,   0.06000,
,,,0.002920000000,   0.05800,
,,,0.002924000000,   0.06000,
,,,0.002928000000,   0.06000,
,,,0.002932000000,   0.05800,
,,,0.002936000000,   0.05800,
,,,0.002940000000,   0.05800,
,,,0.002944000000,   0.05600,
,,,0.002948000000,   0.05800,
,,,0.002952000000,   0.05800,
,,,0.002956000000,   0.05800,
,,,0.002960000000,   0.05600,
,,,0.002964000000,   0.05600,
,,,0.002968000000,   0.05600,
,,,0.002972000000,   0.05600,
,,,0.002976000000,   0.05600,
,,,0.002980000000,   0.05600,
,,,0.002984000000,   0.05600,
,,,0.002988000000,   0.05600,
,,,0.002992000000,   0.05600,
,,,0.002996000000,   0.05600,
,,,0.003000000000,   0.05400,
,,,0.003004000000,   0.05400,
,,,0.003008000000,   0.05400,
,,,0.003012000000,   0.05200,
,,,0.003016000000,   0.05400,
,,,0.003020000000,   0.05400,
,,,0.003024000000,   0.05200,
,,,0.003028000000,   0.05200,
,,,0.003032000000,   0.05200,
,,,0.003036000000,   0.05200,
,,,0.003040000000,   0.05200,
,,,0.003044000000,   0.05200,
,,,0.003048000000,   0.05200,
,,,0.003052000000,   0.05000,
,,,0.003056000000,   0.05200,
,,,0.003060000000,   0.05000,
,,,0.003064000000,   0.05200,
,,,0.003068000000,   0.05000,
,,,0.003072000000,   0.05000,
,,,0.003076000000,   0.04800,
,,,0.003080000000,   0.05000,
,,,0.003084000000,   0.05000,
,,,0.003088000000,   0.04800,
,,,0.003092000000,   0.04800,
,,,0.003096000000,   0.04800,
,,,0.003100000000,   0.04800,
,,,0.003104000000,   0.04800,
,,,0.003108000000,   0.04800,
,,,0.003112000000,   0.04800,
,,,0.003116000000,   0.04800,
,,,0.003120000000,   0.04800,
,,,0.003124000000,   0.04800,
,,,0.003128000000,   0.04800,
,,,0.003132000000,   0.04800,
,,,0.003136000000,   0.04800,
,,,0.003140000000,   0.04600,
,,,0.003144000000,   0.04800,
,,,0.003148000000,   0.04600,
,,,0.003152000000,   0.04800,
,,,0.003156000000,   0.04800,
,,,0.003160000000,   0.04600,
,,,0.003164000000,   0.04600,
,,,0.003168000000,   0.04400,
,,,0.003172000000,   0.04600,
,,,0.003176000000,   0.04600,
,,,0.003180000000,   0.04400,
,,,0.003184000000,   0.04600,
,,,0.003188000000,   0.04400,
,,,0.003192000000,   0.04400,
,,,0.003196000000,   0.04600,
,,,0.003200000000,   0.04400,
,,,0.003204000000,   0.04600,
,,,0.003208000000,   0.04400,
,,,0.003212000000,   0.04600,
,,,0.003216000000,   0.04400,
,,,0.003220000000,   0.04400,
,,,0.003224000000,   0.04600,
,,,0.003228000000,   0.04400,
,,,0.003232000000,   0.04400,
,,,0.003236000000,   0.04400,
,,,0.003240000000,   0.04400,
,,,0.003244000000,   0.04400,
,,,0.003248000000,   0.04400,
,,,0.003252000000,   0.04400,
,,,0.003256000000,   0.04200,
,,,0.003260000000,   0.04400,
,,,0.003264000000,   0.04400,
,,,0.003268000000,   0.04200,
,,,0.003272000000,   0.04200,
,,,0.003276000000,   0.04200,
,,,0.003280000000,   0.04400,
,,,0.003284000000,   0.04200,
,,,0.003288000000,   0.04400,
,,,0.003292000000,   0.04400,
,,,0.003296000000,   0.04200,
,,,0.003300000000,   0.04400,
,,,0.003304000000,   0.04200,
,,,0.003308000000,   0.04200,
,,,0.003312000000,   0.04000,
,,,0.003316000000,   0.04200,
,,,0.003320000000,   0.04200,
,,,0.003324000000,   0.04400,
,,,0.003328000000,   0.04200,
,,,0.003332000000,   0.04200,
,,,0.003336000000,   0.04200,
,,,0.003340000000,   0.04200,
,,,0.003344000000,   0.04200,
,,,0.003348000000,   0.04200,
,,,0.003352000000,   0.04200,
,,,0.003356000000,   0.04200,
,,,0.003360000000,   0.04200,
,,,0.003364000000,   0.04200,
,,,0.003368000000,   0.04200,
,,,0.003372000000,   0.04200,
,,,0.003376000000,   0.04000,
,,,0.003380000000,   0.04200,
,,,0.003384000000,   0.04200,
,,,0.003388000000,   0.04200,
,,,0.003392000000,   0.04200,
,,,0.003396000000,   0.04200,
,,,0.003400000000,   0.04200,
,,,0.003404000000,   0.04200,
,,,0.003408000000,   0.04200,
,,,0.003412000000,   0.04400,
,,,0.003416000000,   0.04400,
,,,0.003420000000,   0.04400,
,,,0.003424000000,   0.04200,
,,,0.003428000000,   0.04200,
,,,0.003432000000,   0.04400,
,,,0.003436000000,   0.04400,
,,,0.003440000000,   0.04400,
,,,0.003444000000,   0.04400,
,,,0.003448000000,   0.04400,
,,,0.003452000000,   0.04400,
,,,0.003456000000,   0.04600,
,,,0.003460000000,   0.04600,
,,,0.003464000000,   0.04600,
,,,0.003468000000,   0.04600,
,,,0.003472000000,   0.04600,
,,,0.003476000000,   0.04800,
,,,0.003480000000,   0.04800,
,,,0.003484000000,   0.04800,
,,,0.003488000000,   0.04800,
,,,0.003492000000,   0.05000,
,,,0.003496000000,   0.05200,
,,,0.003500000000,   0.05200,
,,,0.003504000000,   0.05400,
,,,0.003508000000,   0.05400,
,,,0.003512000000,   0.05600,
,,,0.003516000000,   0.05600,
,,,0.003520000000,   0.05800,
,,,0.003524000000,   0.06000,
,,,0.003528000000,   0.06200,
,,,0.003532000000,   0.06600,
,,,0.003536000000,   0.06800,
,,,0.003540000000,   0.06800,
,,,0.003544000000,   0.07000,
,,,0.003548000000,   0.07200,
,,,0.003552000000,   0.07200,
,,,0.003556000000,   0.07400,
,,,0.003560000000,   0.07800,
,,,0.003564000000,   0.08000,
,,,0.003568000000,   0.08200,
,,,0.003572000000,   0.08200,
,,,0.003576000000,   0.08400,
,,,0.003580000000,   0.08400,
,,,0.003584000000,   0.08600,
,,,0.003588000000,   0.08600,
,,,0.003592000000,   0.08800,
,,,0.003596000000,   0.08600,
,,,0.003600000000,   0.08800,
,,,0.003604000000,   0.08800,
,,,0.003608000000,   0.08800,
,,,0.003612000000,   0.09000,
,,,0.003616000000,   0.09000,
,,,0.003620000000,   0.08800,
,,,0.003624000000,   0.08800,
,,,0.003628000000,   0.09000,
,,,0.003632000000,   0.08800,
,,,0.003636000000,   0.08600,
,,,0.003640000000,   0.08800,
,,,0.003644000000,   0.08800,
,,,0.003648000000,   0.08600,
,,,0.003652000000,   0.08600,
,,,0.003656000000,   0.08600,
,,,0.003660000000,   0.08400,
,,,0.003664000000,   0.08600,
,,,0.003668000000,   0.08600,
,,,0.003672000000,   0.08400,
,,,0.003676000000,   0.08400,
,,,0.003680000000,   0.08400,
,,,0.003684000000,   0.08200,
,,,0.003688000000,   0.08200,
,,,0.003692000000,   0.08200,
,,,0.003696000000,   0.08000,
,,,0.003700000000,   0.08200,
,,,0.003704000000,   0.08000,
,,,0.003708000000,   0.08000,
,,,0.003712000000,   0.08000,
,,,0.003716000000,   0.07800,
,,,0.003720000000,   0.07800,
,,,0.003724000000,   0.07800,
,,,0.003728000000,   0.07800,
,,,0.003732000000,   0.07600,
,,,0.003736000000,   0.07600,
,,,0.003740000000,   0.07600,
,,,0.003744000000,   0.07600,
,,,0.003748000000,   0.07400,
,,,0.003752000000,   0.07400,
,,,0.003756000000,   0.07400,
,,,0.003760000000,   0.07200,
,,,0.003764000000,   0.07400,
,,,0.003768000000,   0.07200,
,,,0.003772000000,   0.07200,
,,,0.003776000000,   0.07200,
,,,0.003780000000,   0.07200,
,,,0.003784000000,   0.07000,
,,,0.003788000000,   0.07000,
,,,0.003792000000,   0.07000,
,,,0.003796000000,   0.07000,
,,,0.003800000000,   0.07000,
,,,0.003804000000,   0.07000,
,,,0.003808000000,   0.07000,
,,,0.003812000000,   0.07000,
,,,0.003816000000,   0.06800,
,,,0.003820000000,   0.06800,
,,,0.003824000000,   0.06800,
,,,0.003828000000,   0.06800,
,,,0.003832000000,   0.06800,
,,,0.003836000000,   0.06600,
,,,0.003840000000,   0.06600,
,,,0.003844000000,   0.06600,
,,,0.003848000000,   0.06600,
,,,0.003852000000,   0.06600,
,,,0.003856000000,   0.06400,
,,,0.003860000000,   0.06400,
,,,0.003864000000,   0.06400,
,,,0.003868000000,   0.06400,
,,,0.003872000000,   0.06400,
,,,0.003876000000,   0.06400,
,,,0.003880000000,   0.06400,
,,,0.003884000000,   0.06600,
,,,0.003888000000,   0.06400,
,,,0.003892000000,   0.06400,
,,,0.003896000000,   0.06400,
,,,0.003900000000,   0.06400,
,,,0.003904000000,   0.06400,
,,,0.003908000000,   0.06400,
,,,0.003912000000,   0.06400,
,,,0.003916000000,   0.06400,
,,,0.003920000000,   0.06400,
,,,0.003924000000,   0.06200,
,,,0.003928000000,   0.06400,
,,,0.003932000000,   0.06400,
,,,0.003936000000,   0.06400,
,,,0.003940000000,   0.06400,
,,,0.003944000000,   0.06400,
,,,0.003948000000,   0.06200,
,,,0.003952000000,   0.06400,
,,,0.003956000000,   0.06400,
,,,0.003960000000,   0.06400,
,,,0.003964000000,   0.06400,
,,,0.003968000000,   0.06400,
,,,0.003972000000,   0.06400,
,,,0.003976000000,   0.06400,
,,,0.003980000000,   0.06400,
,,,0.003984000000,   0.06400,
,,,0.003988000000,   0.06400,
,,,0.003992000000,   0.06400,
,,,0.003996000000,   0.06600,
,,,0.004000000000,   0.06400,
,,,0.004004000000,   0.06600,
,,,0.004008000000,   0.06600,
,,,0.004012000000,   0.06800,
,,,0.004016000000,   0.06800,
,,,0.004020000000,   0.06800,
,,,0.004024000000,   0.06800,
,,,0.004028000000,   0.07000,
,,,0.004032000000,   0.07000,
,,,0.004036000000,   0.07200,
,,,0.004040000000,   0.07200,
,,,0.004044000000,   0.07200,
,,,0.004048000000,   0.07400,
,,,0.004052000000,   0.07400,
,,,0.004056000000,   0.07600,
,,,0.004060000000,   0.07800,
,,,0.004064000000,   0.08000,
,,,0.004068000000,   0.08200,
,,,0.004072000000,   0.08200,
,,,0.004076000000,   0.08600,
,,,0.004080000000,   0.08800,
,,,0.004084000000,   0.09000,
,,,0.004088000000,   0.09200,
,,,0.004092000000,   0.09600,
,,,0.004096000000,   0.10000,
,,,0.004100000000,   0.10600,
,,,0.004104000000,   0.11200,
,,,0.004108000000,   0.11800,
,,,0.004112000000,   0.12600,
,,,0.004116000000,   0.13400,
,,,0.004120000000,   0.14200,
,,,0.004124000000,   0.15400,
,,,0.004128000000,   0.16200,
,,,0.004132000000,   0.17600,
,,,0.004136000000,   0.18800,
,,,0.004140000000,   0.20200,
,,,0.004144000000,   0.21200,
,,,0.004148000000,   0.22200,
,,,0.004152000000,   0.22800,
,,,0.004156000000,   0.23400,
,,,0.004160000000,   0.23800,
,,,0.004164000000,   0.24200,
,,,0.004168000000,   0.24200,
,,,0.004172000000,   0.24400,
,,,0.004176000000,   0.24400,
,,,0.004180000000,   0.24400,
,,,0.004184000000,   0.24400,
,,,0.004188000000,   0.24400,
,,,0.004192000000,   0.24200,
,,,0.004196000000,   0.24200,
,,,0.004200000000,   0.24000,
,,,0.004204000000,   0.23800,
,,,0.004208000000,   0.23400,
,,,0.004212000000,   0.23200,
,,,0.004216000000,   0.23000,
,,,0.004220000000,   0.22800,
,,,0.004224000000,   0.22600,
,,,0.004228000000,   0.22200,
,,,0.004232000000,   0.22000,
,,,0.004236000000,   0.21800,
,,,0.004240000000,   0.21600,
,,,0.004244000000,   0.21400,
,,,0.004248000000,   0.21200,
,,,0.004252000000,   0.21000,
,,,0.004256000000,   0.20600,
,,,0.004260000000,   0.20400,
,,,0.004264000000,   0.20200,
,,,0.004268000000,   0.19800,
,,,0.004272000000,   0.19800,
,,,0.004276000000,   0.19600,
,,,0.004280000000,   0.19400,
,,,0.004284000000,   0.19200,
,,,0.004288000000,   0.19000,
,,,0.004292000000,   0.18800,
,,,0.004296000000,   0.18600,
,,,0.004300000000,   0.18400,
,,,0.004304000000,   0.18200,
,,,0.004308000000,   0.18000,
,,,0.004312000000,   0.17800,
,,,0.004316000000,   0.17800,
,,,0.004320000000,   0.17600,
,,,0.004324000000,   0.17400,
,,,0.004328000000,   0.17200,
,,,0.004332000000,   0.17000,
,,,0.004336000000,   0.16800,
,,,0.004340000000,   0.16800,
,,,0.004344000000,   0.16600,
,,,0.004348000000,   0.16400,
,,,0.004352000000,   0.16400,
,,,0.004356000000,   0.16200,
,,,0.004360000000,   0.16000,
,,,0.004364000000,   0.16000,
,,,0.004368000000,   0.15600,
,,,0.004372000000,   0.15600,
,,,0.004376000000,   0.15600,
,,,0.004380000000,   0.15600,
,,,0.004384000000,   0.15400,
,,,0.004388000000,   0.15200,
,,,0.004392000000,   0.15000,
,,,0.004396000000,   0.15000,
,,,0.004400000000,   0.14800,
,,,0.004404000000,   0.14600,
,,,0.004408000000,   0.14600,
,,,0.004412000000,   0.14400,
,,,0.004416000000,   0.14400,
,,,0.004420000000,   0.14200,
,,,0.004424000000,   0.14200,
,,,0.004428000000,   0.14200,
,,,0.004432000000,   0.14000,
,,,0.004436000000,   0.14200,
,,,0.004440000000,   0.14000,
,,,0.004444000000,   0.14000,
,,,0.004448000000,   0.14000,
,,,0.004452000000,   0.13800,
,,,0.004456000000,   0.13800,
,,,0.004460000000,   0.13800,
,,,0.004464000000,   0.13800,
,,,0.004468000000,   0.13600,
,,,0.004472000000,   0.13600,
,,,0.004476000000,   0.13600,
,,,0.004480000000,   0.13600,
,,,0.004484000000,   0.13400,
,,,0.004488000000,   0.13400,
,,,0.004492000000,   0.13400,
,,,0.004496000000,   0.13600,
,,,0.004500000000,   0.13400,
,,,0.004504000000,   0.13400,
,,,0.004508000000,   0.13600,
,,,0.004512000000,   0.13600,
,,,0.004516000000,   0.13600,
,,,0.004520000000,   0.13600,
,,,0.004524000000,   0.13800,
,,,0.004528000000,   0.13600,
,,,0.004532000000,   0.13600,
,,,0.004536000000,   0.13800,
,,,0.004540000000,   0.14000,
,,,0.004544000000,   0.14200,
,,,0.004548000000,   0.14200,
,,,0.004552000000,   0.14200,
,,,0.004556000000,   0.14200,
,,,0.004560000000,   0.14400,
,,,0.004564000000,   0.14600,
,,,0.004568000000,   0.14800,
,,,0.004572000000,   0.15000,
,,,0.004576000000,   0.15200,
,,,0.004580000000,   0.15400,
,,,0.004584000000,   0.15600,
,,,0.004588000000,   0.16000,
,,,0.004592000000,   0.16400,
,,,0.004596000000,   0.16600,
,,,0.004600000000,   0.17200,
,,,0.004604000000,   0.17600,
,,,0.004608000000,   0.18000,
,,,0.004612000000,   0.18400,
,,,0.004616000000,   0.18800,
,,,0.004620000000,   0.19600,
,,,0.004624000000,   0.20200,
,,,0.004628000000,   0.20800,
,,,0.004632000000,   0.21600,
,,,0.004636000000,   0.22200,
,,,0.004640000000,   0.22800,
,,,0.004644000000,   0.23600,
,,,0.004648000000,   0.24200,
,,,0.004652000000,   0.24800,
,,,0.004656000000,   0.25400,
,,,0.004660000000,   0.26000,
,,,0.004664000000,   0.26400,
,,,0.004668000000,   0.27000,
,,,0.004672000000,   0.27400,
,,,0.004676000000,   0.28000,
,,,0.004680000000,   0.28200,
,,,0.004684000000,   0.28400,
,,,0.004688000000,   0.28600,
,,,0.004692000000,   0.28600,
,,,0.004696000000,   0.28800,
,,,0.004700000000,   0.28800,
,,,0.004704000000,   0.29000,
,,,0.004708000000,   0.28800,
,,,0.004712000000,   0.28600,
,,,0.004716000000,   0.28600,
,,,0.004720000000,   0.28600,
,,,0.004724000000,   0.28200,
,,,0.004728000000,   0.28200,
,,,0.004732000000,   0.28000,
,,,0.004736000000,   0.27800,
,,,0.004740000000,   0.27400,
,,,0.004744000000,   0.27200,
,,,0.004748000000,   0.26800,
,,,0.004752000000,   0.26600,
,,,0.004756000000,   0.26200,
,,,0.004760000000,   0.26000,
,,,0.004764000000,   0.25600,
,,,0.004768000000,   0.25400,
,,,0.004772000000,   0.25200,
,,,0.004776000000,   0.25000,
,,,0.004780000000,   0.24600,
,,,0.004784000000,   0.24200,
,,,0.004788000000,   0.24200,
,,,0.004792000000,   0.23800,
,,,0.004796000000,   0.23600,
,,,0.004800000000,   0.23400,
,,,0.004804000000,   0.23000,
,,,0.004808000000,   0.22800,
,,,0.004812000000,   0.22600,
,,,0.004816000000,   0.22400,
,,,0.004820000000,   0.22200,
,,,0.004824000000,   0.22000,
,,,0.004828000000,   0.21800,
,,,0.004832000000,   0.21400,
,,,0.004836000000,   0.21200,
,,,0.004840000000,   0.21200,
,,,0.004844000000,   0.20800,
,,,0.004848000000,   0.21000,
,,,0.004852000000,   0.20600,
,,,0.004856000000,   0.20400,
,,,0.004860000000,   0.20200,
,,,0.004864000000,   0.20000,
,,,0.004868000000,   0.19800,
,,,0.004872000000,   0.19600,
,,,0.004876000000,   0.19600,
,,,0.004880000000,   0.19400,
,,,0.004884000000,   0.19000,
,,,0.004888000000,   0.19000,
,,,0.004892000000,   0.18800,
